# .PCD v0.7 - Point Cloud Data file format
VERSION 0.7
FIELDS x y z
SIZE 4 4 4
TYPE F F F
COUNT 1 1 1
WIDTH 193
HEIGHT 1
VIEWPOINT 0 0 0 1 0 0 0
POINTS 193
DATA ascii
-66.337387 0.0087839346 8.275754
-65.924339 0.10932062 15.502333
-55.044292 -0.0040603383 14.681992
-56.620045 -0.78102452 3.1037366
-66.071602 -0.8429811 15.232275
-55.798813 -0.84520835 14.867575
-58.234283 -1.6809036 5.0707068
-66.384094 -2.0325825 10.55876
-66.102196 -1.6929713 15.455239
-56.73037 -1.6619773 15.262925
-65.341904 -2.7453957 3.4058399
-65.157043 -2.8288033 5.6735954
-59.851219 -2.5137005 7.2064881
-65.177513 -2.7336805 10.265038
-65.271004 -2.7588072 12.756147
-65.173836 -2.8956718 15.065878
-58.296246 -2.3845835 15.629253
-63.980705 -3.6928608 3.3191962
-63.875248 -3.7905207 5.6502428
-63.818962 -3.4451795 7.9630156
-61.840965 -3.4263561 9.8947678
-63.947647 -3.7540214 12.493578
-64.077866 -3.7373767 14.784944
-61.006866 -3.4203088 16.472454
-63.375931 -4.4791632 3.1767528
-63.29147 -4.3727193 5.4782333
-63.31916 -4.5135779 7.9399834
-63.175117 -4.5600381 10.095715
-63.3494 -4.5394468 12.411146
-63.300842 -4.3860044 14.626248
-62.978443 -5.414206 3.316956
-62.916473 -5.4257565 5.3999543
-63.200844 -5.3426161 7.7218213
-62.898571 -5.3008738 10.094896
-63.240688 -5.5259991 12.366532
-63.192314 -5.3070183 14.647492
-62.762665 -6.191855 3.305896
-62.976837 -6.3632855 5.4177914
-62.796547 -6.2804761 7.7091012
-62.70499 -6.3825507 9.9188147
-62.817093 -6.2908812 12.318802
-62.943348 -6.2325597 14.716994
-63.119442 -7.1889629 3.4484448
-62.923908 -7.1525927 5.3123207
-62.915943 -7.2117743 7.7477798
-62.809505 -7.174901 10.26251
-62.911743 -7.3751335 12.533645
-63.295246 -7.0991149 14.586844
-63.133625 -8.3190022 3.2533021
-63.295845 -8.0408916 5.8337445
-63.405682 -8.3476496 7.7554827
-63.260715 -8.1095657 10.078768
-63.140644 -8.2658186 12.353981
-63.185631 -8.1885548 14.779346
-64.015312 -9.3168182 3.4326267
-63.879932 -9.2938871 5.5130782
-63.86058 -9.145731 7.9235401
-64.055244 -9.111062 10.15804
-64.011055 -9.1047735 12.623695
-63.992519 -9.1992502 14.851289
-63.454662 33.535198 3.9803488
-63.480644 33.518021 6.2552238
-63.306923 33.486439 8.8233919
-63.078644 33.338402 11.364473
-63.370815 33.477882 13.921054
-63.291473 33.432804 16.538233
-62.872147 31.999454 3.791059
-62.882832 32.209637 6.2292352
-62.837944 32.147957 8.648201
-62.871399 32.204506 11.233135
-62.848587 32.238773 13.853763
-62.911144 32.173832 16.185114
-31.002939 15.213244 2.8926609
-30.872934 15.199657 4.2213755
-31.07135 15.166439 5.6583285
-30.984255 15.229895 6.6388688
-31.03265 15.335705 8.12146
-30.97806 15.360691 9.0737886
-30.311909 14.559768 2.9813504
-30.548826 14.34299 4.1292076
-30.406666 14.620138 5.4400587
-30.301456 14.345475 6.5902271
-30.444307 14.470378 7.6180892
-30.428656 14.639015 9.1249323
-29.828911 13.757702 2.9194579
-30.160479 13.882529 4.0915079
-30.073639 14.011187 5.3397789
-30.079615 13.73977 6.4386697
-30.328707 13.685369 7.5803432
-30.098965 13.76783 8.9701767
-29.969044 13.35591 2.9205804
-29.958328 13.216772 4.0074992
-30.004042 13.31723 5.2775164
-29.906158 13.239648 6.3114548
-30.003519 13.25042 7.5485373
-29.71694 13.053185 8.9398746
-29.745682 12.841236 2.7987373
-29.841749 12.682135 4.1523199
-29.822138 12.689807 5.1262431
-29.805979 12.685045 6.4326677
-30.028337 12.721395 7.495636
-29.893452 12.704722 8.9168816
-29.899233 11.920597 2.8515773
-29.919827 12.191293 4.0506868
-30.067474 12.246222 5.0563593
-30.046705 12.364614 6.3470707
-30.005808 12.29466 7.3258944
-29.794289 12.40752 8.7301092
-30.279493 11.952611 2.9144881
-30.266602 11.741931 4.3169594
-30.170187 11.826985 5.3521361
-29.927172 11.716412 6.3493042
-30.008993 11.666249 7.2471929
-30.150084 11.72544 8.7713537
-30.061132 11.373157 2.8979387
-30.152159 11.185805 4.0615644
-30.202703 11.313546 5.2080417
-30.250772 11.319695 6.0689459
-30.045334 11.388576 7.4714541
-30.170347 11.372168 8.8232641
-30.501064 10.791261 2.8054364
-30.319382 10.801939 3.9699054
-30.274042 10.85162 4.9243226
-30.292526 10.836464 6.0411835
-30.461309 10.749844 7.3820724
-30.404112 10.811045 8.5161276
-30.550335 10.502868 2.8186831
-30.415379 10.508355 4.001143
-30.522373 10.27477 5.2215819
-30.478008 10.358894 6.3191166
-30.609488 10.19084 7.4668374
-30.608744 10.445176 8.5917511
-30.905624 10.120024 3.0020142
-30.918852 9.9091406 3.9634454
-30.870806 9.9725132 5.0746679
-31.048605 10.037152 6.2734728
-30.911816 10.073297 7.5217714
-30.661739 9.9529448 8.7549458
-31.183092 9.7731762 2.8315773
-31.201925 9.6757259 3.9796576
-31.161259 9.7231264 5.0652752
-31.184534 9.6741991 6.3195043
-31.345518 9.7714663 7.5594549
-31.178238 9.8140249 8.8124552
-31.610163 9.4264936 2.9781964
-31.542183 9.4244919 4.0994358
-31.697958 9.4068079 5.2299328
-31.545095 9.3049021 6.5026536
-31.568602 9.397294 7.5566626
-31.56506 9.3305368 8.7178802
-32.484303 8.9262609 2.9425359
-32.188122 8.9248638 3.9229019
-32.24947 9.2067757 5.1852622
-32.313034 8.9573021 6.523838
-32.166656 9.0329437 7.8043137
-32.23378 9.0017176 8.9577465
-33.12851 8.7238646 2.9708676
-32.834606 8.6552095 4.3842945
-33.046806 8.8211918 5.306839
-33.124569 8.5463114 6.6418839
-33.041557 8.5772066 7.9157186
-33.259926 8.9281569 9.1358528
-38.450859 9.5636835 9.292161
-39.35638 9.0343351 7.9154463
-66.016434 15.223296 15.502025
-40.426334 8.6474981 6.4565663
-39.802658 8.6446476 7.9688172
-65.777107 14.424658 15.538942
-40.751324 8.2631035 6.6867518
-65.874733 13.358273 15.721401
-41.455784 8.0802469 5.2898836
-65.875984 12.459728 15.384315
-42.708138 7.3724384 3.5949187
-66.016441 11.464568 15.492968
-43.613453 7.1768527 2.0988948
-66.021034 10.441929 15.330076
-44.00597 6.2467923 2.1935198
-66.092384 9.6441774 15.343877
-66.05439 8.4593706 15.412112
-66.033325 7.5047355 15.306032
-66.014862 6.475656 15.519814
-66.102531 5.5943971 15.10581
-66.575233 4.8341465 3.6821513
-66.092522 4.8225803 15.219586
-66.732964 3.631963 3.3871105
-66.071114 3.7238359 15.159348
-65.973839 2.8857255 15.078565
-66.621597 1.9789165 5.7787652
-65.890472 1.7236595 15.350144
-66.04039 0.85376477 15.251819
-54.659233 0.70361048 14.757522
-65.844246 0.09670423 15.21473
-54.638947 0.059602145 14.621454
