# .PCD v0.7 - Point Cloud Data file format
VERSION 0.7
FIELDS x y z
SIZE 4 4 4
TYPE F F F
COUNT 1 1 1
WIDTH 1000
HEIGHT 1
VIEWPOINT 0 0 0 1 0 0 0
POINTS 1000
DATA ascii
38023.664 16247.128 58302.176
34164.945 23108.6 33335.594
28480.145 28270.07 50597.262
30882.506 39954.238 45635.934
55187.867 2569.2891 39216.797
41130.27 74774.297 41459.891
47808.387 51016.188 52733.266
31807.57 46467.516 37803.078
50958.59 24253.158 33250.09
56022.797 254.59424 60894.512
32829.688 50661.957 52108.66
44366.117 65810.336 45623.672
35125.844 61659.555 45757.699
26623.102 13487.668 48621.539
46521.707 49978.418 51801.523
24065.541 2886.886 32479.182
23737.438 2129.0322 61222.363
47028.848 46848.68 52559.129
39572.125 70550.031 49391.316
35127.84 63237.727 49003.734
25156.693 7432.7031 31043.68
42038.457 68396.82 40391.316
55679.555 3164.6436 42557.633
50651.746 33599.227 51345.336
27641.41 2879.2617 29747.572
51693.816 7032.9482 59574.066
30822.879 41542.418 44642.5
55336.406 5356.2207 30671.967
47907.453 24849.992 56988.352
37216.207 70720.602 44064.105
36379.184 80634.555 44971.637
38580.094 66220.602 43878.043
45915.875 49785.203 52072.082
40679.957 87722.289 41318.551
43342.137 87887.789 45014.75
35547.031 69164.258 45297.93
37514.234 37787.512 35454.215
32570.936 50627.473 49975.691
54165.289 15676.301 31972.664
29779.512 28629.814 33586.922
47058.25 54564.012 50662.074
25198.561 3668.9519 29878.436
26722.018 15774.12 43624.266
55186.004 2864.9692 43572.527
49577.176 38723.547 43021.27
53095.871 19555.033 43170.598
44410.59 61847.93 39502.684
43356.672 88329.836 44635.684
49467.418 33853.047 34215.281
54292.863 8068.1099 54465.047
32164.908 44942.066 48216.508
45374.578 62677.527 50900.348
29705.646 36577.641 55186.777
53799.699 14172.488 40688.883
30100.98 40128.406 53805.629
46792.879 58562.895 39029.262
37528.105 90720.602 46241.273
55241.133 338.97308 60382.562
49994.707 36532.355 40221.102
33747.113 28210.525 56030.305
55655.91 2274.4968 52464.746
53039.863 2778.9355 60900.605
45514.254 61366.719 46335.141
40104.504 75528.883 48201.711
30023.93 7409.5991 30274.732
26756.812 4273.4268 29666.131
44547.031 66702.711 40560.047
25870.158 3573.4788 29224.5
48011.168 47239.879 39574.016
25514.479 3645.3701 60739.855
48101.184 31409.51 55755.539
31462.82 37768.945 35721.219
51205.836 28667.316 43676.727
30585.096 39212.496 43414.57
34389.965 62154.754 43544.969
36675.047 64655.957 40116.301
46713.77 52074.625 51197.102
27232.449 2675.2856 60009.676
53841.883 2719.0723 29776.791
47990.578 46153.727 48206.242
49362.324 36086.797 49198.547
33208.086 50232.805 47657.832
30696.715 30559.975 33731.973
27054.82 14864.211 42138.16
24068.451 2548.0898 47080.383
39462.109 41456.547 35854.719
52876.422 18269.748 44824.039
27038.672 17433.721 45367.484
45148.492 65357.812 48776.914
44547.031 66993.133 48692.488
47918.09 43338.988 54030.992
47962.883 44459.773 47742.758
28468.652 23213.816 38667.652
55652.883 832.39777 28139.691
48531.902 25345.141 56850.844
26953.49 2800.3298 28884.186
28225.285 25285.229 36288.539
25080.471 5660.7974 33047.703
36422.883 73364.125 44067.43
51040.73 34161.664 34710.523
44938.359 65999.078 41164.914
44547.031 68890.555 43083.355
49739.758 36200.059 36073.043
34036.012 57768.609 42606.301
42289.379 56703.074 51425.16
24641.391 5825.1826 32861.559
43773.109 36785.367 34865.387
51788.707 25407.154 36120.086
35803.426 65964.797 49891.117
55424.18 2313.2871 42714.844
39792.727 70720.602 41955.75
53832.887 10342.921 37475.047
46979.641 28478.104 55645.578
35832.199 64367.035 39409.133
54463.668 13135.081 58040.824
28351.021 28441.705 33114.711
37013.828 2278.1174 29246.26
25364.453 12753.517 31328.824
33049.484 50489.137 38299.754
44433.82 46290.246 37292.137
30764.113 37680.926 47539.633
47583.953 28467.014 56387.254
54531.98 7640.1299 54705.281
28626.496 28555.26 53145.113
30561.59 28138.098 33328.109
26505.27 14419.843 48234.152
44171.332 66220.602 47657.699
24482.637 2517.687 60058.91
55720.277 6555.3643 29497.676
45056.957 58115.176 50904.73
32937.523 49809.148 49418.98
45545.559 65602.516 49716.867
28103.926 3082.8008 60720.008
28891.303 3168.2451 29299.955
39338.742 41280.289 53997.797
55869.18 2353.8281 46498.207
41585.012 61505.383 39791.66
35235.566 54309.941 51634.34
35652.434 61815.801 39912.75
46860.18 55399.391 50485.027
39036.668 59017.863 39542.27
35655.656 65785.609 41046.047
24237.867 2344.7371 41933.266
30429.703 40137.523 53243.172
30514.09 30147.953 34111.941
26759.059 11392.761 31352.811
53999.391 12016.388 58855.438
33763.238 24213.602 56709.168
47170.184 50638.422 42576.785
42649.852 27772.451 55991.43
32194.268 49478.672 38112.691
36853.098 66027.406 48986.777
29635.752 36904.52 35687.914
41487.07 77306.625 41617.59
25872.689 8261.0234 34965.652
27933.006 17833.834 57397.074
32411.336 31708.6 34315.863
41029.305 50007.633 52574.516
32546.139 24991.387 33606.484
34246.527 54791.645 51958.258
54117.629 15842.626 32039.34
32960.391 49577.133 38521.465
32574.746 50463.645 37603.438
40716.359 66220.602 48083.699
50166.336 34562.254 50152.953
47352.969 50230.07 38467.023
51856.84 19204.445 32448.221
51108.152 29808.764 55226.152
34928.211 28452.682 56397.285
45907.973 52748.652 37723.781
29886.506 28544.166 33979.188
42823.113 76657.789 42864.258
36552.48 74044.656 43582.621
50020.547 32405.959 37565.344
36807.551 80758.977 43006.801
50367.41 31998.029 37503.73
27594.627 22760.342 39905.977
40621.578 40126.645 35919.477
55535.438 2909.9062 29402.912
46364.32 34539.633 54697.863
48945.203 41433.812 44243.156
44090.727 64356.109 40557.68
25987.123 10586.533 36965.312
35061.312 60896.949 44394.586
35006.09 61957.246 43008.766
39484.52 66574.383 49115.012
46980.852 55956.242 51840.262
29755.729 27795.061 33626.207
30292.549 30020.121 56150.297
34208.117 2331.0437 60680.93
24336.48 6873.0986 60028.219
48669.875 40070.402 43565.457
33675.75 34586.398 34911.648
46620.203 56789.418 47210.832
40148.012 70720.602 45036.727
27441.371 19710.293 42031.988
28564.506 22685.352 33508.625
47454.875 51708.59 51439.91
55044.672 10065.11 31151.713
24524.295 3201.9023 59317.773
41916.598 19934.426 32478.461
41283.031 50246.676 52626.914
43661.285 45938.32 36401.254
55709.18 2282.6965 54498.547
55590.383 7346.2163 29647.268
56347.801 396.55786 61600.363
30405.207 34313.234 38693.02
50693.203 31344.412 35799.438
31335.709 39440.254 46571.535
24701.381 2327.9766 32292.084
49680.191 29417.25 33767.336
42882 82400.398 42955.188
33521.535 57142.957 42517.297
42828.816 82838.055 46559.176
35547.031 68271.891 48843.715
32758.229 10018.449 30717.371
43340.312 83725.578 44415.801
31890.217 31160.459 34556.758
46199.535 60357.77 40006.812
49416.227 43419.711 36227.691
49711.621 36557.293 55472.621
31820.969 39597.047 53995.738
47426.988 50245.453 51630.75
46907.543 48246.086 52985.289
44326.285 28402.734 56422.23
35993.277 66263.523 44837.617
32861.375 50377.914 38034.34
31408.475 2502.5598 28933.971
24639.078 3142.2849 60424.098
39220.383 59519.363 50916.203
26551.977 14243.281 40758.305
32806.133 50071.445 51491.23
25218.244 9039.3828 53520.051
27109.465 18876.676 46789.172
26927.615 5409.2827 29395.355
44677.988 63593.238 39093.375
44861.246 59760.895 50906.305
45833.469 63485.191 50308.426
36285.977 70475.469 49391.316
42215.75 77023.156 42129.203
51048.965 31242.121 36504.855
34306.746 52576.469 37570.484
38158.191 57521.66 50452.395
27012.758 12449.643 31408.771
44808.25 64992.301 47927.508
24897.641 2549.8442 43445.613
35344.98 50100.473 51747.285
32097.398 46941.492 48853.125
32043.604 24728.635 56828.289
41836.484 19358.355 32670.676
26683.967 14324.103 57534.898
47988.965 31466.75 34097.207
33855.008 52457.84 51774.613
33255.043 57053.707 39364.137
41246.742 68852.07 49391.316
54406.523 9951.543 36242.906
24705.762 2330.02 48002.695
34973.711 63807.418 48916.508
35563.328 66208.367 48029.062
34079.762 59945.332 44741.871
56279.977 3835.499 29786.795
25745.748 14784.396 58024.176
36586.371 21253.609 57629.316
43095.695 87626.664 46030.152
36622.34 54748.723 38586.801
26739.072 13247.304 57802.148
48919.621 25598.117 33062.758
55388.32 2691.1672 28926.645
31005.879 40227.898 34950.02
47574.062 50309.867 51297.59
53831.488 15446.652 32332.617
53443.031 10242.13 59433.555
24447.297 2273.6963 48630.336
30436.938 2700.1304 29775.133
47188.746 50077.652 52033.035
36679.871 66269.82 39945.625
51083.316 26137.482 57157.266
52369.898 25848.434 32876.188
46890.008 50162.305 38023.273
54899.676 6627.3447 60684.527
39463.453 49866.52 51903.316
46438.707 50159.484 37701.555
35180.645 59305.207 50216.59
47391.094 50219.043 51637.219
49192.652 8288.3711 30160.748
44440.723 66220.602 42538.137
39955.145 60193.637 50018.453
51710.594 25113.193 56574.668
29048.979 31516.994 36388.48
49096.961 27773.857 33732.902
41504.098 70720.602 42030.609
55736.387 3151.2219 46688.203
53355.953 15724.518 43578.469
42713.098 72289.414 42694.375
45428.211 12963.156 58970.184
39781.285 41167.512 36039.438
50724.699 28914.646 54974.672
49580.656 36022.621 39826.473
53975.809 17205.932 32030.641
52675.254 21469.688 41338.82
47780.297 50273.355 38131.824
45888.445 53786.238 51917.266
49488.398 43082.66 36388.84
43344.246 81298.977 44449.855
28132.711 24498.793 38302.062
35820.156 66576.609 42787.621
44547.031 69257.055 41807.117
33742.043 34675.688 34831.219
28155.189 26218.795 36187.184
30965.498 30045.309 33911.949
31659.9 48148.188 36686.914
48634.18 38240.047 35081.105
43207.176 3165.2512 29388.117
54445.672 5095.4448 60532.312
38641.855 43547.301 36024.73
44958.965 21696.301 32828.234
40530.082 28489.758 55653.734
30035.521 39338.164 54478.57
35547.031 69017.703 45403.688
44595.223 64655.438 41998.277
32406.086 51086.25 38496.965
50866.262 30075.98 56601.172
34035.684 60074.051 44953.938
51602.41 30679.35 55906.48
25361.963 3370.2332 59827.629
54087.773 13706.757 41087.27
46113.797 52771.996 37590.109
24371.908 4077.9219 59509.172
51561.191 30941.898 33931.398
49981.371 37306.453 48179.59
40063.254 70720.602 41797.609
45987.895 56992.199 37892.98
48358.215 46479.172 41125.363
46412.859 54692.781 41442.598
46781.32 11175.279 58531.375
35188.609 59461.117 50148.832
25671.572 11553.676 38098.168
35754.875 45942.551 52850.516
33936.645 57789.922 47147.352
32079.51 46093.754 53806.82
44547.031 66250.758 44731.402
29973.121 38421.707 34980.234
33597.727 3014.0742 28986.42
30979.281 25907.623 33026.531
45602.164 2276.1213 29389.98
36912.637 84975.836 46593.148
47527.758 47512.984 38005.977
43175.281 28579.527 56281.5
25143.148 2955.6179 29054.719
46218.879 56618.727 50151.281
43743.891 70720.602 40855.438
37634.227 49816.68 37408.918
27699.16 21974.881 40943.922
45623.918 60894.879 43809.484
42330.73 38382.309 35197.688
51524.066 26599.363 32578.131
29475.965 35664.297 55257.359
39532.754 66512.156 49733.742
41270.641 84294.289 41516.465
44547.031 68904.852 40701.082
42307.621 85804.5 42210.656
36741.98 90653.172 46279.316
49164.82 44070.914 37014.723
34059.023 55307.238 37689.512
42668.082 15602.533 58004.891
26347.537 16365.698 30936.742
43287.777 74921.109 45373.418
24494.043 2635.4495 28885.641
55996.84 2489.4675 59272.422
24391.41 7263.0034 30317.109
53885.922 9888.5107 29814.416
25505.996 6108.5093 59050.746
33230.59 51184.703 51141.762
30884.781 42006.34 45102.34
51045.973 30198.785 54896.168
46095.137 51604.777 38279
34215.492 55974.746 39409.598
37898.082 66220.602 46324.488
35547.031 68852.758 40808.164
36377.625 89154.125 44930.918
28145.02 26569.35 34232.504
40460.922 42671.941 36099.949
35044.754 61729.855 44101.527
28291.145 26627.668 53879.801
36089.559 36551.637 34809.621
36982.785 70720.602 44969.258
54603.777 10241.235 52155.254
50408.43 28561.904 33267.195
32346.584 47260.582 50283.043
23947.201 182.10188 60570.52
50560.273 34565.035 34097.004
55180.367 6886.4429 60601.352
41018.48 17949.354 31858.086
32123.18 49223.164 38200.969
41869.066 70720.602 41122.508
48052.578 28655.443 33660.898
52457.141 21150.52 56337.941
35547.031 69761.414 44109.129
53330.355 19629.551 31632.723
45568.098 3117.8555 60664.539
44547.031 67491.719 43115.543
51503.465 27844.742 56532.418
47285.438 10641.897 31161.35
51612.785 28158.256 38381.324
37972.027 66220.602 45549.621
56183.406 1797.9397 59816.535
44461.742 47239.73 53077.68
35545.5 66673.961 40389.789
27592.426 19166.934 43747.488
33740.027 50650.008 37800.844
53739.961 10848.521 37908.723
47598.293 9841.2305 30836.645
25107.697 3832.7146 59010.082
35830.09 65871.539 44872.938
32292.715 50089.543 51418.137
38525.457 43964.672 36656.098
36621.688 77908.32 43407.082
54756.727 7106.0854 55223.75
55104.117 4307.1143 30490.67
39434.469 66220.602 47440.352
41650.605 66220.602 40883.918
29687.125 27999.311 56403.973
29330.24 33153.875 51994.277
55651.734 690.35516 61657.867
32916.438 50641.895 40196.664
28258.965 27889.816 55410.578
34243.004 23525.703 57219.324
31929.283 2706.6521 29341.777
52072.664 20860.898 56456.203
39467.953 66220.602 40463.715
34406.113 62453.477 40490.914
47022.07 47598.707 53100.609
47065.055 46876.152 52411.934
40335.688 80591.664 48168.895
45009.383 66214.414 48893.422
43448.707 28175.834 34216.188
39694.652 70631.25 49391.316
49447.953 37154.426 36228.316
54271.195 8831.957 53505.258
32659.021 28437.006 56406.254
44268.043 66632.531 40213.969
34822.781 62337.637 42706.289
32722.688 49783.191 37566.973
28532.508 28437.887 48561.969
50318.703 36502.949 53893.73
40085.258 82748.195 41228.211
24755.662 3076.6882 33977.203
37446.062 28154.475 55568.316
52133.191 22362.199 40530.082
32165.783 49400.289 38448.801
28665.318 28116.57 56369.746
32614.787 53989.297 51110.699
42652.344 88878.602 46806.266
30626.641 37972.117 54321.164
55803.523 2315.5518 56101.191
34449.043 55195.68 38105.66
55020.941 3507.603 59628.059
45425.105 62096.352 45813.398
48570.359 41920.363 52733.918
35706.93 3147.3696 60595.047
37157.703 56945.188 51023.914
46290.059 55000.996 41642.887
40499.316 42050.551 53148.75
33398.285 10637.805 30857.426
25947.213 6927.2397 60242.789
32863.961 32361.291 55518.262
28310.564 24593.326 37580.293
46087.238 56360.762 41637.547
32249.018 42195.961 53753.027
36406.844 85956.938 44206.367
49694.016 8987.7207 59468.793
30930.17 26100.461 56790.93
38001.203 50578.094 37332.418
39681.41 2978.8486 29693.357
48341.98 39309.578 53874.605
33436.703 50390.199 37620.07
33173.152 52547.094 49910.27
40100.344 60223.473 38895.832
37879.117 76557.375 47583.203
44413.234 64390.305 48169.441
44239.426 13796.526 30811.002
47958.656 3167.7883 29294.736
45102.039 65643.266 48965.656
28698.445 22788.6 57497.27
42366.848 81884.227 47143.199
41489.301 16691.832 57773.195
43339.574 64750.715 49216.277
46129.164 62316.195 49964.086
33922.703 56835.324 51938.512
35180.938 28085.838 55584.539
45609.273 34169.012 34809.727
45764.836 63246.793 39268.215
39014.852 17146.889 32017.105
52013.656 20966.154 48242.23
51691.188 28589.184 56665.176
45014.898 22051.703 33121.629
32035.199 41227.457 36404.48
28671.723 28589.945 37367.699
38301.77 39643.055 35313.605
45574.746 63193.359 49173.133
55523.254 5603.3091 57240.988
48348.062 49282.891 37087.438
28338.746 23335.74 32054.387
46897.824 50321.426 41393.008
51371.523 7133.145 29700.801
34883.516 22062.963 33040.512
49068.508 8529.2822 30062.062
33838.922 61377.398 39227.902
53401.988 16293.077 42899.438
40631.664 66666.68 40436.184
37668.703 62746.879 49678.047
37316.527 83655.383 47105.086
24356.369 1919.5052 30099.713
44642.363 21469.051 57393.703
28160.85 21862.82 39940.742
28112.625 28347.508 55653.062
42692.551 65918.039 40059.91
31349.713 46421.039 36399.758
35880.422 70720.602 41707.496
31764.176 44394.266 36584.289
47744.551 25565.279 33200.012
25657.107 7878.2695 58680.988
27633.365 19032.531 33035.488
44135.418 63648.895 39667.18
40501.52 41384.227 54113.387
32819.668 11001.605 59432.035
46420.156 57129.605 46696.203
41760.965 19652.002 32571.363
54082.008 6363.5273 59617.32
34172.035 55222.555 52023.34
52125.41 24771.488 37846.707
37363.961 70720.602 48462.164
37322.258 14442.016 31204.771
47822.012 50014.367 37321.406
45256.535 48399.18 52692.316
50917.711 29861.715 55224.379
39478.449 40941.488 35530.625
49007.469 45736.195 36992.234
50329.785 31048.447 53977.902
39785.836 70720.602 44731.406
56047.762 3739.071 28810.957
45639.922 55960.863 39213.578
39050.891 43129.953 53804.301
41140.125 83396.539 47966.691
40143.43 70720.602 45226.977
28494.486 28098.309 41293.125
45849.25 61860.137 40347.773
39988.164 66220.602 47488.039
51616.891 28109.939 55968.719
33354.691 51432.309 38842.227
43573.012 45700.289 52512.43
27462.051 19653.555 46407.969
36259.094 66220.602 45493.297
28078.807 27273.535 32981.953
49610.84 34497.984 35662.754
54819.668 3672.3291 60932.277
41144.289 80831.969 47965.379
28486.152 22182.127 32062.963
47735.617 47550.16 39252.871
51011.574 27799.031 44359.73
24922.189 5110.0356 30656.5
48372.531 42527.527 37130.844
41796.668 90532.922 47616.398
28610.268 2383.5525 60158.789
50542.465 26802.605 56492.516
32478.398 49136.52 52446.289
24710.502 3108.3101 60173.961
33564.324 59814.684 39528.27
53181.43 2299.365 29169.537
46164.984 57942.289 43783.328
46275.16 57711.449 46222.586
35173.965 2738.6411 29336.443
36828.578 44731.672 36489.621
33178.359 50240.617 37871.84
46002.426 60060.59 44674.641
53813.559 13273.462 57708.574
26918.477 5652.71 60077.574
39964.652 68181.398 49391.316
44139.344 63380.148 49734.574
46856.508 57973.398 50593.938
47092.629 53385.246 50293.574
31772.273 25834.166 56841.156
44535.559 54685.852 38556.84
35740.836 68223.922 40391.316
36526.184 69849.258 49391.316
54266.77 10543.132 37523.551
53591.859 12947.665 50261.688
51597.031 27540.08 56559.496
48163.758 9568.6133 30951.553
29718.504 8267.1182 59318.75
51575.832 30688.803 55250.215
50017.629 27656.957 55929.605
47486.988 46436.48 36203.711
52566.523 24492.201 56166.941
47283.664 47332.414 51943.668
46340.316 57411.684 39722.512
39817.812 86432.141 41214.383
30229.82 38283.461 42220.617
42749.539 45380.016 36530.293
33204.855 50269.711 41474.09
48779.844 47145.938 37101.629
24702.842 6218.063 57186.867
38961.906 3170.1179 60461.273
38861.605 66220.602 46357.367
49171.949 38500.227 41881.949
53923.527 17645.543 57892.367
44517.516 54561.461 37996.812
28073.301 25848.297 53278.691
37121.785 2502.481 60062.793
39385.055 85933.461 41247.605
51565.523 31066.494 34429.527
27827.449 19923.334 41979.539
24920.611 2818.1143 44841.754
33239.52 55193.688 41514.926
36121.926 64285.359 49718.348
40946.434 18880.145 58004.746
42184.281 19414.52 32679.248
37027.238 55550.801 51581.711
26676.744 17018.723 46032.027
51448.656 28571.516 42848.234
25870.496 9803.0635 58317.406
36514.836 71711.398 45717.082
25972.412 8459.1982 58673.707
28496.398 28091.174 39528.191
23838.932 3857.9446 60630.223
34095.121 63084.703 39910.449
49989.594 39792.238 53663.93
43195.805 63715.797 49996.742
55954.805 736.10986 60780.891
34235.348 56079.68 47788.516
29066.785 26650.869 57084.371
39725.836 69214.461 49391.316
27461.371 5484.7983 60415.43
50809.691 28490.1 49159.738
32777.535 51237.609 38673.211
56181.801 1385.967 29929.459
26513.752 17553.268 32620.143
24442.248 3172.9763 59477.668
46222.004 58840.812 39916.938
44915.113 63241.023 40774.809
36698.547 70720.602 41721.918
31381.252 40149.297 46304.254
43343.441 77377.758 44980.801
39625.297 49939.203 51828.98
34177.586 49777.027 52105.781
36594.699 90317.68 45939.438
36710.719 76068.469 43208.492
29765.699 37671.016 54812.75
35547.031 67804.742 48136.09
48994.828 36361.594 35719.035
47639.738 53644.773 38300.094
30892.27 38663.84 55088.875
35148.406 47333.59 52681.078
35771.805 62862.566 50369.02
35554.539 64262.883 48351.52
47054.562 48475.27 53167.551
52425.23 19994.184 33237.152
48146.133 25233.461 32811.531
33968.859 50090.625 52608.469
24486.744 377.19373 29741.68
51918.273 26438.254 35885.426
42855.504 80958.945 46510.094
54983.414 4071.8235 31124.57
47678.742 48283.398 52497.219
50906.316 32485.604 35271.508
26704.564 18616.773 32809.227
36170.758 65822.156 49854.473
51483.125 23142.658 32188.945
33093.215 50520.516 50864.219
33271.641 53187.336 52575.172
45938.109 48686.645 52011.434
52442.566 5515.9395 29415.641
34704.82 56178.062 38736.93
37162.262 69471.086 49391.316
51025.09 34240.086 54900.539
55534.441 2277.3394 50908.117
44339.473 54862.949 38672.223
32283.662 46542.543 49667.898
27244.271 20697.744 48450.949
35529.516 35453.129 54550.637
29333.607 2578.2961 60029.742
34571.945 60575.5 45103.375
51757.352 26006.314 53080.852
25777.498 10342.021 58218.445
51400.434 29258.492 56655.07
49024.906 42680.5 43636.434
36395.379 20926.738 56831.27
53661.848 3153.2903 29444.17
48234.566 46608.66 48648.457
42882.211 45236.172 53469.691
32994.148 49362.793 37753.164
36805.656 50344.141 38034.438
40221.551 79030.906 48186.527
50592.461 29693.957 56601.426
37953.93 81193.867 41785.227
30616.795 29572.373 55598.172
51172.957 27771.016 45382.543
40536.945 40306.246 53650.348
24812.855 3325.1853 59225.773
36794.508 86739.57 46375.918
44632.188 66661.891 43275.297
24033.574 2731.3281 42149.887
42006.5 70720.602 48406.809
52452.094 25997.559 33192.812
47582.883 49028.422 53297.758
30971.164 26441.266 33877.402
46330.133 49580.254 52060.664
33822.859 57945.48 49975.34
25042.059 4136.4453 58454.555
46340.59 50829.266 51934.969
27691.344 18847.336 43822.555
26861.311 20193.195 58051.852
35547.031 68040.281 49088.477
31039.598 36545.055 55165.984
36931.184 64307.824 40062.75
30215.533 33887.289 50793.793
52715.02 20358.695 42622.902
37147.812 20431.732 32855.699
53411.547 19826.24 32757.605
34140.848 56888.438 42057.523
44917.164 65967.648 41681.508
45558.59 60957.238 38566.582
31677.85 45176.789 48451.348
46120.02 49463.039 52412.168
53424.086 10072.731 30726.6
44943.867 66430.328 45135.547
32895.332 48682.059 39103.074
24357.18 6830.8525 29671.871
44003.844 64406.488 49991.355
47982.145 9716.917 30173.375
51176.777 27771.352 50320.828
38770.348 82259.461 48026.027
52942.539 13646.436 31745.822
37935.82 18989.623 57554.906
39066.152 66220.602 46888.363
35031.363 12272.931 30801.035
47965.402 41942.266 36600.238
48905.824 40608.203 45066.238
51482.168 28540.652 51211.047
40888.906 70720.602 43685.812
38006.559 66220.602 41481.391
27986.562 18893.598 58218.363
39386.113 3068.7039 60171.281
30450.283 31860.908 55546.059
49725.082 26822.666 33980.895
55398.621 7686.751 29538.715
43358.566 79734.078 44586.281
24703.51 3623.5623 29645.551
28195.363 29147.727 34099.086
30677.367 8094.9121 59261.41
37518 70720.602 46857.203
42808.656 19807.619 32670.703
46969.922 33378.863 34215.012
53369.324 15346.283 57345.066
25182.43 6875.2383 56755.219
26166.568 4601.0127 59744.996
34142.656 34423.582 54926.535
37047.043 63580.688 40242.035
30593.924 40169.172 53131.941
54982.66 8489.5244 60289.891
30549.936 40084.492 43773.141
35734.473 66220.602 40824.992
49286.184 8517.2021 29944.793
45460.105 47286.352 52695.977
38151 77553.391 41668.066
28928.797 26948.006 55282.527
37961.816 38863.996 36077.805
43249.375 68531.406 49391.316
52763.406 23167.82 57479.668
40117.492 17041.115 57632.781
34991.121 60462.719 45314.711
24466.611 2733.2329 31420.289
50722.723 28271.777 50107.398
38722.809 66220.602 43908.98
37641.879 90720.594 44850.461
43346.141 64564.535 40090.875
34686.234 53143.887 52102.254
52642.445 17417.268 57069.434
42086.883 67000.398 40391.316
54531.637 4572.0835 60615.895
34334.395 48998.105 52592.617
46248.016 50623.965 37799.18
52379.57 16652.92 32211.346
47116.84 2901.3928 29737.254
38712.852 66410.781 40797.27
25867.209 4026.8164 29539.529
43239.883 50530.207 52503.57
39870.582 76917.914 41211.723
53021.148 17625.574 45568.355
45292.473 64036.41 50616.312
32607.102 45344.801 53597.492
45909.078 57852.746 51751.293
25201.877 11684.705 30520.021
30702.27 43052.086 35905.707
25957.869 10789.273 37146.582
40287.309 2994.3186 60100.109
26149.105 12377.46 31919.355
48916.379 43727.852 43011.398
31466.205 40229.254 43779.367
32739.275 50225.125 50075.871
55571.711 2274.0789 53212.539
44992.242 66165.828 47789.68
38219.238 56903.438 38691.484
49110.984 45039.227 36413.168
55593.668 2710.4856 55328.438
43319.473 85362.625 44235.242
46296.453 50198.812 38051.531
51294.906 27790.443 45904.402
30158.512 26730.154 55851.852
46407.312 57744.492 46383.09
34517.203 48333.387 52092.227
41995.516 75930.172 47476.527
28851.729 6280.3882 59749.578
56025.758 2892.803 53166.191
24793.936 7808.7593 58878.203
55711.301 3837.7161 28651.467
28744.533 28140.416 34221.406
52297.68 23418.625 38353.07
39200.18 66203.906 49379.648
34176.449 49818.473 37801.801
37028.996 90412.664 46751.641
51682.219 21496.551 56535.629
43080.578 68320.984 40391.316
50841.84 31530.369 36991.844
28885.303 30220.824 54088.949
47666.113 49920.641 51995
32032.537 9972 31039.137
27213.314 18591.156 46572.445
40371.512 74758.664 41250.184
46706.395 50323.703 51467.039
33501.543 52102.492 39274.098
32621.67 51386.68 51730.531
52180.582 3011.1589 28983.504
36527.312 13853.741 30941.793
29571.73 31327.068 36950.082
38683.801 58940.828 39281.887
30791.832 34353.434 35305.727
35772.164 65830.992 48355.523
42576.695 90720.602 42800.824
25500.984 13683.207 58383.879
41921.66 79293.445 41886.672
24753.186 4437.0381 28712.582
50434.504 27927.828 55574.688
46664.668 54614.613 39271.945
39555.562 81375.031 41234.516
24260.486 2329.5647 43909.156
49191.113 37464.836 47880.047
45550.184 59948.703 45324.793
29401.668 31354.887 35808.32
49404.613 28599.348 55771.867
51983.98 23906.727 32108.146
34382.906 56215.301 51822.723
37516.672 89797.422 47297.711
43115.781 66220.602 43813.387
44866.879 65906.477 44042.195
51993.465 20871.92 48449.82
36022.215 70720.602 45195.48
26841.078 18303.295 31192.662
38414.59 44043.219 53046.172
43344.418 72939.055 44955.211
46474.102 59723.965 38788.824
36373.199 90206.352 44497.805
50147.996 30129.764 55809.809
43028.344 14823.579 30979.658
48047.395 45310 52129.973
55999.805 599.42059 28965.445
29138.502 29545.195 54919.059
52148.836 2344.1313 60699.617
52875.09 20292.275 58255.633
42263.293 39357.23 35994.637
43331.188 70768.125 44336.723
29342.371 35344.078 54410.832
49772.742 41259.598 36261.809
44883.855 61987.418 43195.945
32056.895 41820.32 54119.48
51022.801 7254.4595 29664.975
47108.273 53548.789 50770.629
38820.051 39500.926 36060.785
43620.109 70720.602 46194.461
31329.146 40582.297 46121.59
29442.641 33306.328 54305.68
43425.188 64416.688 40515.848
43156.969 75083.727 45859.555
54619.004 2661.8145 60900.57
55460.809 6038.2969 32499.908
24212.619 2362.4153 52756.363
35556.602 66220.602 45028.648
34526.562 58158.227 38172.824
25541.057 3280.429 60010.027
35065.605 58546.488 39393.109
37710.918 50668.867 52159.32
32943.664 33538.934 55428.527
25960.443 13637.519 40438.5
49072.602 27926.887 34110.363
34277.309 52247.242 51823.855
48236.645 43204.719 54246.449
42989.48 65776.43 49457.867
42197.473 66220.602 42945.152
32240.045 42228.961 53802.637
38757.004 81684.211 48021.809
56028.387 2554.0457 56586.617
52027.887 27582.348 55628.211
25144.734 8295.7773 29432.248
32713.781 50345.391 53066.727
40288.82 87051.492 41243.84
43613.309 66220.602 42106.406
54702.852 10464.638 52262.301
47235.895 50520.008 52080.184
29162.875 34534.703 55232.707
28795.326 32236.992 55709.832
53144.488 14086.531 32093.789
24179.262 3051.2043 32325.016
44882.805 59601.625 39664.441
34581.867 60829.164 43812.188
44547.031 69951.148 40970.496
25689.105 14822.376 58503.754
46866.863 28281.07 33325.398
50629.738 7470.9458 30136.291
38021.48 56610.742 38721.219
27933.115 26730.164 32947.312
55374.73 2991.1335 60813.543
30456.178 28390.84 56427.777
47990.48 47843.438 40121.543
39235.633 89704.852 48145.473
39254.508 17112.902 31404.178
36540.707 55385.035 38493.73
35725.574 65809.227 48802.406
32920.723 32851.441 55638.723
45023.797 60454.961 38660.449
52752.383 17495.1 32774.031
45202.609 63071.895 42184.34
32463.299 49566.715 37307.582
44834.375 66566.656 49171.969
30337.994 32502.049 35155.562
35254.258 65879.398 42459.137
47606.098 28618.795 33976.918
45374.727 63952.742 42291.629
45848.469 53598.504 38061.203
45307.504 64012.113 48958.566
28597.936 27914.512 42381.645
37404.215 82112.141 42223.156
25626.709 12943.205 58043.641
30946.408 34817.352 54572.457
29311.928 27132.439 55477.59
36227.887 55014.387 50899.238
46069.43 2599.1245 60887.266
25134.141 3026.8271 59984.152
48013.566 41159.617 53884.656
34764.168 61321.195 49335.949
50832.387 24923.027 56595.973
50498.625 33425.094 38589.262
43145.051 75731.117 45892.742
36634.715 46208.961 37069.438
35257.688 60872.668 40123.328
25117.285 8933.2393 54155.766
26143.562 11576.61 58006.293
40701.754 2505.7834 29721.383
46913.438 50377.496 42684.074
33921.219 56336.582 39576.566
56026.605 2890.9832 33907.367
40783.676 67470.578 49391.316
31188.189 41659.531 37016.027
39697.652 70720.602 41582.23
44204.105 63302.211 39578.93
34373.949 58073.672 38102.52
42811.691 55654.332 51353.758
29669.158 37343.551 35677.461
27110.305 20638.521 56583.719
37303.023 86772.242 47092.094
47576.246 51999.707 38623.566
39066.281 74090.766 48119.312
51615.094 28184.588 44364.285
31975.744 42784.52 37075.762
26818.18 18735.262 46034.336
52996.031 20165.967 42512.328
44547.031 69627.148 48953.109
43224.426 44623.508 53009.68
43675.816 37160.121 54472.238
27130.957 13588.387 31751.301
29073.559 31675.287 33568.742
42591.82 70720.602 43901.988
25427.379 6002.3228 56598.793
50900.645 27920.146 34487.227
47458.359 51724.18 50821.609
51413.68 21756.979 32899.684
47314.887 50880.238 52149.492
37011.105 20992.631 32194.189
52755.371 17043.66 30997.893
53739.52 8221.1436 59469.461
55026.898 5425.7837 56988.035
44486.844 65093.992 41649.484
53416.688 20333.092 32111.877
51642.285 27031.178 34426.703
23416.979 774.84906 29514.236
30887.01 41888.219 45370.43
31340.145 31689.578 55699.188
33797.078 34686.602 55108.48
43213.758 70720.602 43477.457
38211.176 38620.293 54182.523
31159.514 41001.711 45897.973
