# .PCD v0.7 - Point Cloud Data file format
VERSION 0.7
FIELDS x y z
SIZE 4 4 4
TYPE F F F
COUNT 1 1 1
WIDTH 2000
HEIGHT 1
VIEWPOINT 0 0 0 1 0 0 0
POINTS 2000
DATA ascii
38238.906 263.8205 46410.457
37772.582 50831.688 48791.52
38465.465 8614.2393 60792.855
33112.418 11155.125 43643.863
27293.42 2388.4119 39705.031
42152.535 79325.586 47213.312
40911.109 65316.055 51242.059
37726.469 4903.0674 60199.82
46707.688 24489.785 43100.992
42352.156 51669.086 48878.066
36113.82 54550.664 50130.238
36607.34 25424.525 56825.172
38475.762 51067.277 44250.559
40139.172 18362.871 48240.082
36925.754 48600.648 42027.719
29444.111 11568.288 40585.504
39003.176 68457.594 51726.68
38105.527 70763.82 49109.723
41723.48 78950.391 45537.609
37070.898 66263.82 51342.504
38641.84 7437.2495 59294.371
38252.434 85189.203 43757.949
28118.275 8620.584 41419.594
39972.156 64373.59 46003.207
26353.145 4852.3789 39743.207
40448.957 31073.166 47103.598
39328.18 39250.602 45559.863
47089.113 22513.504 42736.086
38212.859 57578.262 48963.348
35638.953 82634.852 45471.246
41081.285 75419.242 49739.508
37630.008 78512.102 43883.641
30331.631 19095.557 40272.293
42147.949 76871.508 47012.816
41318.672 71579.156 49494.961
41248.891 83846.734 44886.801
38695.188 38761.668 45429.781
38164.062 22295.133 57468.5
44568.012 47094.391 47461.238
33931.973 39187.137 42947.168
41752.113 54456.148 49170.555
40341.609 768.94983 47862.836
37050.363 10487.046 46435.016
32716.654 27644.059 41037.145
38550.43 3206.4365 54722.93
36861.727 47713.43 47203.812
40798.176 62065.281 49060.207
41311.496 86179.969 49504.379
44434.68 40554.742 45512.258
36860.449 14528.07 47218.426
38283.559 60886.133 45471.07
41236.234 62405.695 50792.949
40966.906 69824.484 51726.68
39219.273 28504.609 48933.156
43159.727 68976.195 48151.457
50998.25 4192.939 39729.41
41212.516 90763.82 48353.453
43115.062 70495.859 51726.68
46359.582 3038.9448 43229.852
29529.078 14545.313 40062.098
35141.156 37669.051 41995.469
38567.223 61005.23 43185.387
38392.324 14189.919 51057.941
40801.133 90763.82 45656.809
40353.457 13923.284 47833.801
40419.773 6017.7646 47586.316
36654.746 72906.523 44358.797
40431.113 4562.7764 47543.969
39947.543 58632.598 45978.602
38700.285 61472.637 49023.133
37812.199 45572.406 45643.363
36054.797 37812.547 52711.117
34925.23 64096.688 48646.535
39182.039 35050.883 45510.227
37661.992 60531.359 48134.133
41479.836 13555.496 45398.543
41866.594 56799.598 48241.375
26494.855 6292.5347 40155.695
39420.969 65134.395 44143.469
36130.105 2322.0898 45656.676
37360.723 44159.133 45989.785
36172.359 56252.223 50002.684
38105.359 8082.3604 45518.82
40281.766 12082.023 46462.191
37622.805 48796.531 42933.719
38526.609 47737.398 45438.324
36886.102 38932.07 47528.129
37075.445 39880.449 46381.23
38564.355 17219.709 48333.305
36171.512 85777.398 44773.531
46138.227 26392.17 44457.621
43949.254 2914.3257 44687.98
37383.57 24023.074 48486.418
51240.379 946.61072 39107.105
38205.512 59112.371 48961.379
25524.445 1809.038 40431.383
37003.445 59578.766 47917.723
37050.434 9493.7207 46434.867
41808.707 71619.391 48740.781
50390.734 7653.7378 40260.988
37533.082 9234.6973 60340.504
40797 82630.266 44465.906
46048.953 36411.582 46300.695
38670.805 48107.801 45236.898
38124.672 52920.402 43933.758
37081.387 48731.164 46368.488
31727.215 2645.7786 42688.109
40450.746 60079.492 47329.34
37329.961 46720.566 48279.316
33676.684 31046.17 41566.547
35242.023 77563.188 46493.816
39133.41 50692.5 48956.168
33169.168 33640.422 42882.336
35686.312 64328.512 47135.766
45334.727 33863.551 46099.691
37985.418 28351.805 55719.848
31574.918 29181.918 42132.66
38056.934 25411.213 55780.41
38311.789 43063.961 47289.426
38525.316 56393.625 45438.438
32039.619 9306.3848 42853.43
37990.012 55623.848 44166.988
36865.219 1063.1824 47289.457
39499.199 57556.883 43699.836
38904.879 61493.695 44327.152
37382.477 31929.291 48485.328
37507.973 89928.922 43928.379
25279.188 906.51868 40038.461
48368 21024.887 42480.402
36999.5 70763.82 50639.344
37597.574 10597.631 60184.008
42113.488 51172.492 47923.629
38195.836 54929.066 43308.82
34661.734 43676.078 42617.41
39072.613 2688.8818 55229.641
33986.02 33747.105 42719.52
39303.984 44308.219 47520.371
38637.926 10525.592 53975.656
38704.566 5977.0049 59605.328
42157.953 52737 49033.375
38737.16 44579.141 47156.719
36119.039 31669.906 55290.871
28259.453 6488.2646 40798.766
39605.637 66263.82 43739.316
38544.895 47666.715 45436.723
36547.926 36699.809 52820.434
46604.996 23668.871 44088.09
40454.816 36721.73 47170.551
36523.406 33870.062 55238.398
39426.504 58736.492 42758.898
37858.945 17218.777 46518.547
32584.846 29726.293 42677.871
38736.012 12999.858 58414.816
41602.637 70763.82 47205.711
36932.43 13317.294 46744.84
35185.297 67991.422 42726.68
38780.375 38828.707 45437.238
34460.105 37721.621 41370.043
37580.477 57956.949 48660.012
41603.816 66263.82 43439.781
47303.469 30033.432 44718.66
26450.561 2818.6853 40635.426
36924.633 44286.051 52558.637
37318.246 76370.609 44004.844
39888.859 25838.207 45919.914
39120.105 4351.3198 61516.125
47460.176 19433.234 42344.867
37451.496 54270.039 45899.02
28165.031 10798.992 41548.875
49818.176 4472.6587 41308.695
37146.348 31056.619 54085.805
35252.746 82993.156 47988.621
35493.043 74087.867 48708.215
50353.004 3039.3191 40944.289
42021.648 80802.195 48190.227
48583.184 2510.488 41973.938
37304.902 43644.598 48407.754
37306.707 2775.6296 45918.418
39768.422 4877.2388 48639.395
37566.762 40322.953 45802.953
44938.652 3195.5056 43491.266
41193.953 64530.191 51066.449
36984.258 26707.752 46576.781
38223.09 62162.887 48126.121
38243.859 60879.477 47947.977
32811.984 29092.596 40955.344
46608.484 23790.773 43244.75
39179.906 60055.117 42653.559
38753.926 2330.293 52439.797
29700.562 21076.912 41263.68
34159.727 69978.055 50845.637
42779.039 3213.1116 44859.988
39048.621 19459.541 45474.477
37620.434 54728.738 43964.617
36056.785 72729.867 49564.938
40170.422 45803.949 48195.445
37263.891 22744.723 55889.703
42190.004 54565.422 47945.352
46043.883 31533.365 44022.723
37007.242 50092.816 47925.863
37104.195 43549.832 48131.414
34166.668 38890.785 43137.508
38176.555 15322.786 45499.738
30636.494 17184.225 40760.441
49314.773 15057.483 41513.836
41072.602 58050.594 49571.117
37700.578 16698.463 45709.254
48815.672 3185.0947 41596.594
26813.305 2313.8203 40144.824
39918.469 59784.363 43986.652
37140.727 2486.6094 46749.211
35261.414 87036.523 48033.316
37935.215 47379.633 45552.895
36749.02 88455.109 50149.262
41108.434 79880.656 44729.195
40366.465 20737.9 47785.246
35709.922 84708.375 49107.051
38301.016 4485.9077 45466.395
41441.203 60530.195 48680.664
42458.699 57249.055 48244.156
50982.438 1805.71 41047.301
34159.727 67851.914 48117.414
37479.531 54461.293 43724.551
40521.352 62415.797 50504.109
35859.723 45959.586 43599.223
37495.988 36598.891 53926.836
38055.719 17523.432 47354.254
28709.865 15112.242 40239.66
26630.686 167.84862 40746.875
39082.609 10682.901 53781.023
36976.68 32667.162 46593.031
37652.902 36897.027 45742.637
37065.074 24931.496 48049.895
40165.023 3505.2415 46250.199
36959.832 37106.281 47810.781
48871.434 15684.486 41476.086
44113.734 39891.277 46863.062
40212.48 63232.93 49749.781
41718.656 71316.438 45530.164
35214.969 80941.445 47793.844
40513.297 2366.1462 45926.379
38838.379 43205.227 47429.645
39051.723 5965.5259 58352.938
35846.355 44572.598 51138.297
40243.488 16384.221 46204.945
37840.062 50429.574 43479.789
35269.16 41403.305 41585.652
39508.789 22318.578 45644.082
40387.98 58094.773 46748.395
40264.625 32732.723 48027.922
34159.727 66874.375 43452.926
31026.518 2446.9338 43146.402
39075.777 14164.544 50752.551
34562.695 56959.434 48961.934
41613.578 75125.266 45367.902
39190.949 1632.4344 48940.746
32605.982 26474.732 42047.848
42518.5 66263.82 51414.242
38425.176 20797.115 57408.047
38337.543 61973.754 47297.207
47391.145 24025.057 42804.512
43159.727 70443.688 44701.242
36881.105 47072.387 46982.309
40546.172 87669.883 50166.332
39921.992 46094.781 47853.574
38117.914 67340.828 42726.68
40361.902 60152.438 47802.281
37509.691 57956.008 48610.449
37527.129 6408.0898 60618.516
41936.945 70763.82 49570.727
49555.688 15630.147 42672.543
43074.309 70763.82 44191.426
35827.375 40995.832 42823.039
35891.531 49144.508 43130.988
30783.135 2442.8428 42276.719
28373.246 8506.2344 39799.395
46012.562 30002.094 45506.57
49755.012 12504.387 41125.375
38427.578 17189.271 58633.383
41484.766 59449.301 50304.527
29782.238 16914.383 40137.836
48563.309 21042.57 43763.859
40498.848 70305.961 42726.68
37499.863 54415.164 43741.617
37547.059 5166.5146 48636.613
40322.613 90527.578 44155.418
38202.898 2799.0745 61413.395
43730.941 41565.168 46954.926
38160.91 36470.426 45503.934
33019.348 31724.539 41002.551
40473.48 70763.82 48464.426
39871.254 62191.348 44551.926
39407.613 25188.561 48856.461
35268.992 75439 48072.418
36918.391 39114.008 46797.238
38440.473 39186.402 45445.863
37131.781 3029.2759 46282.555
34670.363 2374.2495 45162.012
48639.828 17299.896 41742.02
38653.594 37951.031 47237.945
36731.871 44993.906 52592.598
47256.832 20349.943 43731.434
50031.23 12569.459 41495.008
35662.488 85987.859 49019.82
37131.453 57187.418 48170.34
38639.508 16928.484 58312.98
36718.57 84259.172 44320.855
39024.008 17304.074 45467.879
37465.285 4823.7363 48568.137
38620.324 13274.505 45430.129
34960.426 50190.129 51090.297
44738.992 38423.109 45183.836
30750.264 25836.018 41604.898
45258.73 33315.965 45899.016
28161.998 3130.937 40814.668
37017.148 26654.557 47947.109
35811.637 45607.434 43586.645
38307.59 68917.141 51726.68
41244.703 83195.391 44882.102
41014.473 58913.359 48032.316
36264.617 51041.152 49844.695
46428.023 29826.564 45557.773
40732.375 49961.996 47700.391
46720.43 29300.797 45442.398
40235.074 69530.586 42726.68
39433.047 13032.837 48844.602
43570.07 52948.973 48678.613
37428.141 3341.3379 48530.992
47044.32 31169.141 44474.758
39842.707 28940.809 45873.762
35550.684 80799.875 45631.062
43853.219 51497.184 47960.93
37203.297 24782.641 46180.418
38516.07 11472.74 53668.445
40440.895 42038.809 47011.395
37930.875 70316.828 42726.68
40330.289 22281.006 46566.254
39638.016 55470.672 45722.652
36708.832 57248.199 49489.105
43159.727 69381.797 49489.59
36429.297 80408.453 44542.734
34594.707 56209.48 49733.555
30761.896 24780.363 40871.797
37599.984 35527.957 48673.676
37328.488 53658.496 42385.812
40427.516 85019.055 50245.465
50080.445 7137.4751 41001.074
30502.975 21717.01 42171.445
40427.863 1259.9486 47556.133
35448.594 70763.82 51658.273
41945.461 71795.203 46025.199
38930.609 60145.918 42695.824
37149.285 62428.371 48195.801
37699.527 57370.008 44837.168
33576.168 2526.8445 44707.531
47311.27 26666.252 43303.098
38525.492 68666.008 51726.68
27048.359 2955.9568 39413.559
42156.508 84974.383 47109.668
40919.934 82005.469 44567.289
42131.168 85847.719 47656.281
40107.383 90696.391 50403.973
45032.297 44202.43 46990.977
34617.324 55208.004 49541.746
38668.633 32189.916 47217.484
35958.68 33139.965 54796.148
36524.93 76486.297 49991.645
38644.434 60340.965 42873.312
39366.164 57310.281 42948.055
36691.305 49040.266 50664.094
46458.461 35320.84 45508.352
36470.875 67003.977 42726.68
41662.523 66527.258 42726.68
38052.801 42749.535 45532.902
37430.703 49279.691 45919.809
43146.664 12748.501 45122.125
37635.594 12207.659 58287.016
39913.562 83948.648 43969.516
37580.688 82462.289 43899.07
40916.816 82417.906 49897.793
37702.176 26525.1 55212.211
39042.902 41650.578 45472.945
38461.367 12665.518 51408.551
40339.613 57409.562 46586.246
38784.656 37672.816 45437.613
41769.488 84127.586 45632.664
40455.777 30811.846 47271.785
42355.801 53790.855 47628.77
38141.902 59406.867 45509.027
39814.996 66263.82 50329.707
50349.695 9563.9756 40761.777
39875.754 65030.027 50292.438
40382.156 18190.07 47726.699
37247.992 34860.199 53411.852
41906.301 72388.695 45937.855
27447.236 9612.1855 41222.105
40286.617 70763.82 45959.789
36508.727 70763.82 45443.848
43796.223 50855.41 47480.938
38543.316 58166.062 44700.117
40798.477 76413.227 44467.125
39562.824 14073.888 45670.008
37866.582 20223.602 48835.355
37821.41 14130.083 59596.484
36982.602 76837.836 44163.883
43623.152 43587.551 47561.078
39022.207 2502.0996 48043.23
38781.762 2883.9641 60500.316
39875.055 41670.965 48547.254
35151.375 65694.117 46505.656
39175.879 42535.234 48944.785
37436.918 62333.25 48539.77
37289.27 28397.656 48392.121
34426.688 59941.078 49044.719
40967.656 66263.82 43548.691
38491.004 10039.146 45441.441
35494.676 75708.398 48711.219
40442.148 29755.174 47427.613
43642.863 50697.41 48707.809
37885.25 70763.82 45401.484
40237.957 84327.32 44105.09
26620.756 1428.3301 39281.973
28761.404 6003.5381 41316.027
50953.016 480.75955 40827.391
36241.793 54683.141 50381.258
39691.598 66263.82 46500.883
36932.68 52753.504 46743.914
35046.43 45234.477 42949.207
36233.477 70763.82 45568.52
37110.703 79476.984 44088.488
37147.242 37006.34 52959.781
40426.605 63013.441 50601.301
34943.699 70763.82 48331.766
37481.891 90763.82 44378.832
47727.191 16618.184 42155.324
32064.42 28540.453 40830.883
41728.734 79583.648 45545.73
49130.441 9221.4082 40670.91
36862.195 11206.724 47254.895
38515.977 58288.406 44306.688
36402.719 44394.207 42027.387
35346.891 53904.016 49615.285
37919.387 17099.137 47315.188
30207.955 15011.933 40984.527
50482.719 79.828278 40354.445
35212.531 79140.414 46657.484
32526.107 26616.033 42203.82
31890.779 25532.438 40686.195
36875.648 49719.871 47408.648
36455.758 15639.64 45877.832
40389.078 66064.594 46752.5
43159.727 70585.195 50050.059
40012.316 79875.812 50451.043
41144.051 66263.82 47874.477
34340.977 35566.371 42855.625
35474.398 42260.613 52086.625
36964.465 993.06055 47828.074
46894.598 7476.0669 42016.691
34396.531 70763.82 48437.703
38512.203 57169.668 44412.312
39068.223 8091.415 56330.438
38755.539 10703.544 54383.832
38237.254 2902.8547 46980.609
37012.402 15780.015 47936.938
35079.008 66263.82 48595.672
35806.898 13601.032 45637.73
37305.227 56866.418 48408.078
41326.859 14138.778 45184.875
37370.746 66263.82 48466.551
41371.348 86000.156 49425.859
40438.43 39124.789 46983.25
40425.367 2507.1306 46887.93
30797.346 24146.416 40693.734
32884.344 34590.516 41474.301
39024.785 70763.82 48081.633
41679.758 55677.293 48674.008
36515.031 55537.742 49199.18
43498.969 11771.773 44471.57
39819 87756.656 50520.125
47142.957 7056.0757 41858.711
39724.418 28703.467 48670.207
28741.027 16677.49 41071.531
38813.5 17345.494 48191.906
37241.234 66263.82 49826.566
37217.57 81927.445 50406.691
40445.391 35098.234 47390.57
38236.484 12397.997 52487.238
40356.824 62070.801 49966.078
43159.727 70113.828 51103.395
30401.494 18814.559 40289.207
34604.234 2726.02 45382.301
39904.699 66092.344 50892.059
37178.078 36153.699 48236.93
39059.148 26875.479 48976.062
45820.152 28336.51 44096.68
40350.945 51373.902 47842.809
36773.043 25488.102 55420.203
34826.781 36178.98 42384.41
38307.07 25401.633 45464.77
43916.234 41087.859 47049.652
40443.504 9234.5 47412.125
44210.84 48097.457 46997.578
38987.859 10001.442 59203.086
38395.695 17591.168 58553.703
39662.145 51120.398 48713.816
39701.285 51804.742 48686.41
39982.184 11973.92 48440.129
36038.727 61244.246 48204.613
39120.867 47163.785 48959.527
34313.195 37482.223 43129.387
37222.34 48905.766 49083.887
37441.312 83698.602 50501.402
37949.293 3879.3611 60231.055
38500.883 17421.48 49012.785
40045.953 51212.008 48373.207
43159.727 68175.984 45824.184
29216.691 13773.244 41728.879
35376.941 43216.113 52631.207
35552.879 71504.688 45626.168
37493.039 6766.9067 60089.316
40235.656 14743.401 48090.051
37375.273 67336.578 42726.68
37661.324 19078.229 56682.723
43875.84 50692.406 48429.898
39800.398 23802.984 45836.355
38860.414 21368.301 49009.121
38308.254 54517.324 43530.969
37217.863 12188.841 48293.746
35022 70763.82 50631.527
41656.086 66263.82 45892.984
38648.82 55794.23 47233.418
35387.359 88699.039 45995.387
40404.098 55111.043 47644.801
38483.402 8155.6968 56746.23
38631.582 2765.0188 51251.379
40065.547 12619.312 46108.133
38232.633 13245.245 45484.715
44056.371 45827.062 46325.953
40054.07 40234.805 46091.742
35479.23 80183.383 45790.453
41236.078 66014.68 49773.605
43172.934 52896.879 49142.16
39728.293 13157.407 45785.867
38561.609 71927.312 50722.918
36096.387 71561.594 49603.051
37679.73 22785.404 57671.801
43018.676 50190.84 47027.164
40107.641 80633.008 44047.742
39899.426 2385.042 45930.484
38784.395 44050.512 46658.961
38536.754 3107.5806 47155.055
36922.52 5366.2002 46781.832
37444.84 70763.828 44251.504
39305.039 6118.3604 60507.863
49245.836 7786.8989 40565.941
42985.848 46831.031 47961.133
38513.852 80875.188 50721.09
35725.707 61830.078 47560.297
40018.141 6241.7061 46049.195
37470.621 31867.111 55506.926
38714.695 3588.7588 60093.199
42432.199 57769.863 49897.684
39462.008 77266.539 50633.094
29100.365 18333.102 41083.043
42663.281 70763.82 46365.836
36063.648 56117.961 48973.164
40453.078 63157.969 44427.785
34370.754 59662.164 48483.809
39289.352 64503.297 44123.422
38931.977 10643.839 54307.383
37453.047 53763.82 43350.84
28373.393 14839.983 41156.238
31877.725 2587.2839 43753.43
38405.648 12145.273 45448.91
37994.531 60523.73 46158.395
41360.359 70763.82 45046.605
39299.652 66263.82 45550.863
36031.547 89295.422 44930.586
41622.379 70763.82 51362.957
47503.863 22524.861 44379.238
41486.691 55700.238 47917.535
36868.969 14991.304 47121.047
49361.383 4624.0156 41606.48
38671.23 79667.461 43727.562
35844.516 86891.172 45153.824
37973.215 20564.484 48885.078
40413.742 25109.334 47608.812
39561.707 15064.133 45669.223
39705.812 10909.68 48683.234
38710.633 74518.383 43730.586
43015.316 45678.445 47473.102
38668.281 90059.875 43727.336
48416.98 17277.551 41723.094
49150.605 11127.146 42513.332
36418.391 70763.82 46921.324
41565.254 57614.973 48313.965
35218.727 86475.359 46603.832
38095.672 31025.281 45521.414
38438.164 49781.691 45446.066
36023.305 59411.383 49254.242
49709.398 14564.261 41811.211
40071.688 45318.879 48336.461
37782.082 58792.699 45257.512
36937.074 76655.984 44190.949
28329.877 2361.99 40977.191
47512.738 17395.541 42639.156
48387.641 6302.7905 42093.246
40261.316 58868.941 46418.34
26584.662 6843.4644 40353.395
42142.449 83811.586 46965.207
46402.25 31155.221 43965.297
40041.055 46051.473 48380.207
34130.715 32981.879 41787.172
40503.43 49619.961 47808.883
41968.465 66263.82 51483.441
38641.711 44758 49025.105
40285.074 44208.969 47984.07
38390.301 11881.716 52188.801
37300.211 36051.164 48403.062
38589.605 9538.9766 60527.824
34159.727 66929.016 43001.422
36501.203 71754.625 49974.953
35311.664 70198.336 42726.68
38003.32 17548.297 58816.098
36377.902 66498.219 51726.68
35572.707 38958.492 53300.961
43026.77 45639.203 47488.047
38863.012 4900.4233 58678.84
47205.887 22013.604 44180.652
36760.363 57282.023 49472.191
37755.258 66263.82 45364.371
41599.281 84069.875 45345.824
38822.02 40418.883 49012.48
36503.688 46159.527 52461.984
36065.352 51241.395 49695.754
48061.633 24487.129 44247.859
38293.84 17504.322 57231.691
40923.078 66263.82 49910.098
48832.738 20294.863 43337.246
41632.316 63444.672 50727.219
36011.48 70763.82 45864.418
29354.713 5495.4048 41737.875
36175.305 79190.43 49679.004
34878.801 39416.488 41481.988
26614.367 2740.3799 39303.441
37148.078 78827.742 50372.285
41986.184 83044.109 48288.965
41071.543 68803.219 51726.68
36290.371 77804.453 44657.305
45724.355 36547.551 46547.332
45321.574 42056.453 46277.098
43159.723 68540.664 47952.156
39783.352 37093.875 45824.418
36214.641 66263.82 51278.113
37433.418 52950.805 43355.363
42393.059 49719.473 48196.914
49947.422 3881.3887 39850.637
36970.891 56811.164 47847.914
30826.936 21117.418 40401.945
36669.164 31360.842 54023.238
36869.16 60355.609 47118.863
36753.531 86369.93 50152.438
37948.707 25959.619 48873.652
42496.672 50810.082 48744.793
46838.832 32666.951 45361.219
38225.629 18568.258 56994.621
38301.762 44959.48 47135.469
45464.664 41455.422 46621.09
39163.285 6362.6826 60875.203
43159.727 69738.961 49928.867
38997.371 2994.177 59880.75
37537.191 40033.02 48629.703
34938.738 56198.609 48701.762
41408.246 74353.219 45065.605
49442.086 5385.1504 40795.504
41161.477 65112.285 43596.844
48271.602 5429.6406 41988.727
38270.277 57393 45474.625
37006.383 637.14276 46529.332
38598.758 2316.2563 55901.773
27483.371 10747.397 40375.781
38614.801 11175.679 52742.488
39048.16 58859.676 48979.008
36038.336 66263.82 46005.109
48284.863 20186.738 43945.824
39835.512 50027.652 45866.566
40447.078 48077.641 47082.102
31743.586 30384.783 41818.223
47569.875 3097.6953 41781.902
38906.094 2408.4773 54171.43
37535.074 3108.3916 46906.539
29343.34 18718.043 41630.574
38127.973 90763.82 45238.305
50355.945 99.610703 40104.977
37062.379 70763.82 48114.551
38621.758 2314.425 55359.676
36102.062 38857.23 54095.371
39707.836 28626.104 45771.539
40164.035 2955.6196 48204.57
40205.922 86782.789 50355.18
36889.137 45252.387 52310.109
30752.236 18206.871 41620.734
42080.176 76409.445 46503.789
45269.809 39482.332 45369.957
43408.141 48779.215 48603.262
37941.668 19777.83 48870.367
38709.984 3206.1418 55353.02
40279.242 66263.82 50611.145
40090.285 4602.6836 48309.895
37647.004 46352.227 48371.672
40030.734 43851.801 48391.574
39574.332 69403.648 51726.68
37120.473 70763.82 45653.215
39114.391 66263.82 45645.594
41693.367 13289.846 45285.438
32363.461 10586.814 43555.023
36941.324 6524.3877 47741.715
37938.191 4769.8706 48868.746
48923.137 19955.148 43053.719
38037.504 50672.273 44917.898
35292.227 47082.297 52035.086
41821.695 61022.492 48835.742
37866.156 11194.907 45618.207
38228.914 2899.6423 47890.094
50801.473 6910.9966 41529.969
36517.07 52202.32 50699.742
37896.906 16097.186 46585.617
39265.855 6705.1763 60219.301
34573.438 70763.82 51492.188
37578.637 1416.3672 48658.727
35014.344 56733.531 50161.027
38773.645 70806.5 50722.309
44583.91 36691.391 45250.98
40404.965 36038.137 46811.785
40074.527 78584.086 44034.395
40414.738 26585.186 47605.094
50510.906 8284.6416 41825.219
39948.418 18792.402 45979.473
38283.008 14706.953 59395.422
35757.816 89955.766 45287.703
40338.617 73807.039 44164.93
36708.402 66263.82 43839.52
38531.336 59456.914 45089.578
36413.082 66263.82 47057.445
40224.016 23251.281 48115.012
44359.844 46573.016 46654.562
41451.109 79429.422 49321.223
37036.051 34288.438 46465.719
35890.277 62453.355 47704.695
38901.027 51009.473 49005.57
41782.523 89512.391 45661.738
36966.336 45719.035 47835.062
31833.818 2924.5974 42765.496
41075.789 70763.82 49333.98
40008.559 36219.789 48413.754
38404.637 66263.82 47699.922
38898.637 2543.8328 47365.832
40461.574 16186.776 46568.367
39615.879 66263.82 45404.473
50096.539 8229.6826 42055.285
38063.383 40523.324 45530.066
37617.984 71727.555 43886.449
37566.598 23003.391 48650.301
34768.621 12689.66 45346.527
42150.148 84434.328 47275.555
37191.25 64709.621 46197.621
39095.891 32244.875 45487.145
41485.25 81034.055 45169.742
42546.988 55377.457 49632.883
36880.25 22095.789 46992.094
38216.719 44750.27 47109.113
27868.277 4533.9502 40047.613
35635.559 48911.246 51940.875
36944.18 71523.57 44186.727
36477.895 90763.82 48870.609
42591.348 52612.301 48526.602
38200.523 8532.8662 55622.102
34816.527 70763.82 45099.312
38421.102 85296.828 43745
45948.375 29020.17 45209.234
37489.617 56526.824 45860.891
31520.842 27581.873 40914.961
39887.207 66220.547 49946.289
30832.955 25402.355 40984.82
34032.887 33841.934 41356.32
36951.402 17455.184 47779.32
30745.1 23551.705 42214.387
35226.164 76961.133 46551.52
39386.586 27114.566 48866.266
44779.984 42221.684 47475.543
40315.91 66263.82 42911.031
44807.609 40063.254 47201.77
38119.262 26066.85 55944.398
35963.551 62582.992 47950.941
37007.945 39132.012 46525.984
37967.32 56732.102 43906.512
37826.152 5669.9204 59856.473
39972.309 16469.98 46003.363
39429.07 25719.34 45606.91
36144.75 56892.934 49847
34228.32 33647.941 41675.641
36888.871 20086.238 57956.738
40524.762 58409.898 48289.383
44794.602 45081.527 46668.34
38968.43 55233.109 42946.559
35843.461 77924.492 49288.578
38761.727 61696.211 44127.57
36811.133 42714.199 53142.324
36963.07 63924.812 46630.496
38047.441 61215.789 46422.836
37682.621 61037.418 45721.828
39835.016 71737.828 50515.055
38297.445 36494.871 48986.016
27045.225 1679.2587 39544.188
35197.066 66263.82 43551.234
44891.273 44385.785 46526.32
37920.805 3037.1069 45592.727
40442.754 54476.699 47420.688
31937.375 27000.213 42522.105
34897.109 41625.281 41605.465
37026.809 90455.883 50312.242
34601.316 70763.82 45657.203
38323.305 87505.039 43752.512
38579.094 3207.5808 49665.734
29793.898 6962.7207 41675.957
38474.824 56428.82 44283.691
40224.855 18213.127 48113.207
37035.105 10111.229 46467.742
35330.625 89856.078 46171.395
34433.777 70763.82 49588.148
38127.496 51978.68 43469.141
38045.199 60352.773 48318.656
38710.77 60700.578 42906.461
40417.082 30280.461 47596.352
38096.355 57563.973 45521.23
39341.469 46532.609 47803.113
36737.949 34412.531 53319.191
34459.625 58825.32 49218.992
38125.086 90763.82 48074.352
43159.727 66313.211 44546.133
37503.129 70763.82 48176.836
39561.688 919.57562 61278.598
34791.707 70763.82 45901.484
49537.066 15558.88 42724.199
42121.973 81418.258 46787.816
33597.383 30989.066 42309.844
37229.262 29124.174 46143.34
38814.949 12806.251 52403.434
39487.043 7396.5044 45633.941
26928.578 5507.438 41218.785
47734.559 23974.338 42866.367
41792.93 66263.82 43278.68
39480.797 83729.766 50627.152
40387.879 87583.266 44194.219
36545.48 27138.594 56489.129
39136.23 47859.012 48955.41
35600.312 82495.703 45530.914
39120.992 9157.1123 59681.418
37586.281 46252.508 45789.281
41368.039 72982.273 49430.199
42331.809 59757.602 48862.527
41549.199 90249.57 49192.543
37297.902 3962.2412 46052.605
37411.898 31615.094 48514.75
37866.266 70763.82 48898.711
44670.992 46173.793 47540.293
27371.854 3218.0129 40168.871
38050.805 59116.926 43442.305
48150.445 20026.605 43966.496
38623.141 31753.68 45429.883
35582.109 81737.25 48872
43159.727 68653.398 47247.707
44820.691 41366.496 45622.055
39885.258 61145.539 47155.266
36908.609 66263.82 48405.746
37415.879 38296.051 48518.73
47672.078 18734.744 43611.039
38292.348 23658.605 45468.715
40091.164 70763.82 46510.922
30932.658 7505.2925 42749.652
37706.141 66263.82 50794.895
42149.387 52970.887 48824.859
40694.434 75126.945 50062.047
39268.652 64356.496 43451.957
38248.074 8971.0635 48972.785
27581.352 3505.1953 40673.586
37106.215 81047.742 44090.395
38766.445 14188.627 58340.375
38876.402 18648.5 49007.727
34874.141 58592.574 48127.742
27201.121 5967.1416 39498.328
38956.102 2975.823 60593.004
40240.789 28036.518 46374.32
38920.527 61008.184 44383.957
38169.758 4325.5068 59615.32
50500.176 3895.1587 41384.832
38526.117 56391.273 44230.246
37247.738 85542.578 44033.262
39902.527 66263.82 48470.617
38955.586 78745.195 50712.094
36915.684 46177.75 42285.957
49676.633 7890.8882 41994.945
38301.145 8146.1069 59995.797
43159.727 67766.68 49540.008
35337.316 87094.711 46147.039
40300.52 88688.875 44142.285
40439.531 21147.137 47457.527
38497.352 3195.9524 57782.844
37794.434 66772.805 51726.68
37924.031 68433.016 51726.68
48709.957 10879.729 41118.34
37444.812 49293.078 43584.52
49591.59 14146.724 42747.613
37822.453 59955.973 47925.82
36675.754 87344.016 44346.309
34159.727 67247.531 50110.988
34289.293 38657.957 41421.168
39768.609 46627.234 48639.27
42392.98 53942.281 48903.48
34715.57 54059.043 50182.59
38773.719 64598.438 47083.816
29193.729 15410.496 41823.141
37283.277 57736.609 46067.23
40664.383 90763.82 45664.48
36923.281 61026.043 47674.375
42929.586 53397.273 48499.039
36606.598 23175.158 57122.973
29347.592 5795.3184 42098.273
44564.684 41513.965 45616.797
45236.242 40594.617 47101.738
38154.344 62325.367 46892.418
40819.98 59270.887 48074.441
39482.195 2339.561 61587.188
38563.391 1956.2899 60441.039
37076.086 15478.189 58842.168
33849.176 38920.176 42907.562
38566.68 64849 47310.762
41874.262 54705.684 47948.492
46031.242 28971.109 45257.109
37674.086 20872.865 58119.051
35171.133 83852.859 47323.09
39883.812 66263.82 44461.438
38903.488 67249.969 42726.68
37858.652 68510.32 42726.68
38211.082 16770.057 48229.438
31419.947 28710.736 41443.051
38679.086 61625.969 49024.984
37866.066 70763.82 48326.602
38495.688 66263.82 51080.527
41133.855 70763.82 48141.258
38604.895 3210.2029 50757.652
40775.391 80848 50005.102
38583.363 36610.309 45433.359
37799.488 16026.854 57350.129
40051.523 45249.633 48365.254
34159.727 67049.562 45041.664
33061.848 34811.125 41368
38208.605 20667.137 57884.902
35060.059 56348.984 48594.043
28841.896 9866.7939 40023.176
41393.207 82400.812 45048.734
37958.824 2600.1272 60579.875
41864.617 73410.305 45844.859
41726.812 63451.887 50632.922
36217.148 58021.891 48862.652
38565.066 48501.953 45668.996
36293.762 26741.914 55850.992
39544.699 66263.82 45516.664
39995.137 73585.641 50459.551
43870.738 44732.695 46155.77
38882.504 70849.875 50718.141
36494.23 36023.027 54793.121
35703.527 49329.586 50060.234
37130.547 41474.891 46284.312
36871.215 44468.984 47095.395
41066.613 85904.047 44688.258
38556.172 2319.4871 56243.336
39679.766 27155.908 45751.887
37009.836 28644.809 54587.691
37804.402 31568.471 54891.898
41806.355 80491.469 48745.109
37303.094 2463.4485 48405.945
36882.781 65278.969 47490.176
38323.508 55114.516 43938.648
47046.004 21985.094 42760.043
43534.309 3206.9807 44527.152
39637.977 3648.4592 48730.734
48561.453 17164.408 41707.645
42098.887 70763.82 43838.75
40435.82 49440.043 47499.926
42164.633 53780.449 48699.875
48757.352 20375.551 42699.543
46429.043 27230.961 43432.57
36120.711 30940.928 54618.684
37866.531 571.39343 45618.031
38199.77 2669.1094 52787.344
38188.578 2753.3865 53003.793
35344.703 74659.078 46120.164
32359.127 9795.1699 43991.188
32608.514 10841.584 44128.211
34159.727 70433.938 51326.086
41450.703 66263.82 45253.887
38333.09 27995.436 48995.57
37709.859 5043.7646 45702.754
46683.887 33895.254 45228.57
49934.711 13277.11 42288.258
38387.25 46394.422 45680.77
37041.969 64323.137 46453.02
42064.758 55704.367 48655.586
36928.793 66263.82 49184.715
38172.625 45841.129 45500.797
38551.703 16052.349 57739.836
37660.695 64767.523 45737.18
39173.824 2533.5615 46487.445
36700.227 48977.098 48997.242
45198.895 9129.7354 43653.559
27614.885 3375.2107 40519.527
37578.664 34446.414 45794.621
36897.676 56391.355 46874.559
39039.695 2883.7292 60847.102
38697.238 81279.484 50725.242
25500.613 357.41217 40759.168
43159.727 67099.453 47806.922
38681.547 70763.82 49060.965
37310.328 9982.4805 48413.176
40362.094 29957.766 47801.566
38213.027 2849.5464 48619.066
37675.609 82437.891 43872.969
42539.617 52404.23 48355.465
36653.641 67271.688 42726.68
36243.168 66263.82 47084.734
38218.262 2537.9209 60945.312
40363.797 61122.75 46658.148
36750.781 41104.996 51959.172
38774.102 44877.656 49016.672
37461.551 19573.08 45888.957
42075.848 80889.461 46488.039
43159.727 69328.5 50031.988
37683.832 35503.078 48732.383
39225.391 15497.566 45521.84
28833.537 5554.9287 41515.785
36824.977 37048 52781.105
41524.562 70763.82 46227.184
35221.316 66013.258 46470.613
38352.055 5341.8369 48999.762
44968.797 35665.613 44858.59
37727.633 26313.236 48763.055
41038.293 70763.82 45324.637
40093.379 45324.09 46147.883
34123.422 65398.34 47888.965
37524.273 48995.992 48611.82
37611.645 11968.051 59950.957
47560.098 20556.049 44003.438
39933.555 71153.555 50483.871
37825.922 74442.922 50623.117
35462.195 80063.039 45828.457
37590.781 52958.434 43116.176
37263.453 20672.141 58121.176
38243.848 18482.074 57022.832
40240.148 62052.602 48080.414
37705.676 83415.594 43865.93
39055.008 2631.6838 56053.977
37507.668 52041.195 43991.637
35398.027 47754.469 52034.203
38713.141 11029.703 58684.613
51118.895 5935.1255 41083.984
38652.766 53769.066 47215.926
37676.57 45794.105 48727.301
42246.27 55864.352 48203.172
38181.109 4058.0618 59801.926
44420.148 2869.0581 43427.926
38073.402 19723.461 56681.77
36910.078 46918.09 46828.258
35211.25 83087.102 46668.598
34159.727 66845.727 51083.035
38955.352 90763.82 50256.438
41577.582 73070.508 45312.312
38481.688 18320.104 47000.348
41030.336 66263.82 50324.137
42725.051 66263.82 49134.691
39853.98 88057.547 43945.504
39644.289 90763.82 50176.293
37076.883 54261.875 48075.211
37243.082 11428.594 59563.359
36150.414 50805.656 48894.645
29670.934 19255.051 40443.559
41554.555 73536.141 49185.516
34220.746 12799.425 44500.512
30434.771 7818.7021 42954.902
35225.012 61671.23 47351.562
36075.566 33006.48 55052.172
38555.676 14582.764 45435.785
37641.691 6130.9131 48702.875
38464.457 20348.248 57388.824
25469.41 836.86377 40654.578
39299.473 64787.562 43723.551
38852.035 8673.5996 56213.305
26660.307 3074.5574 40217.219
38460.402 89378.977 43741.98
33006.91 27950.568 41420.059
39588.562 66142.453 43894.129
40395.598 14349.365 46776.828
33406.199 33136.738 42871.91
45646.371 40384.379 46318.961
42368.602 66263.82 44997.559
39841.504 80720.609 50513
34159.727 67598.898 48976.656
37193.902 66263.82 43068.824
42077.215 2657.4565 45773.52
40313.98 58428.699 46531.285
35073.953 40599.867 43304.52
36169.656 55720.09 48993.68
37807.023 70763.82 47349.75
40415.797 77748.523 44210.812
47849.613 22763.547 44369.789
30554.76 20293.043 40338.434
40948.613 68875.133 51726.68
40415.102 70763.82 50963.441
43159.727 70196.484 44035.562
42139.93 55169.543 48764.664
38463.785 17078.119 45443.824
40237.023 13238.93 48087.117
38980.59 4491.1484 59220.824
37124.07 23793.031 46293.566
49822.242 4502.8789 41287.629
38260.438 13584.764 50797.191
34159.727 70436.531 48296.48
37136.277 42851.125 46276.129
38168.41 11278.32 48951.438
35664.055 37455.984 53656.898
30078.977 22775.674 41427.828
40234.191 36990.859 48093.188
35284.242 73943.086 48151.055
32109.152 24102.447 41859.793
44755.695 45268.707 47537.059
38056.719 57064.969 45002.703
46620.363 34141.508 45536.996
34733.926 35875.961 42461.375
38327.547 89610.859 50706.484
40389.746 60983.848 46754.988
45826.637 33099.336 44271.539
37719.086 29518.818 48757.066
40135.883 69276.062 51726.68
35173.793 66661.945 51726.68
37801.312 11131.138 45648.445
37636 86536.023 50563.016
26936.355 7983.5781 40080.438
41311.312 59693.781 50307.602
42875.801 70763.82 50798.453
28414.453 13516.263 41547.168
38401.93 18341.828 47076.527
45392.895 30792.5 44605.738
35207.398 88747.898 46701.957
27445.662 8825.2393 41315.047
36573.855 29530.049 56100.281
43200.504 53913.816 49155.812
39017.172 45786.965 47273.465
29250.539 10716.106 40857.652
38263.285 56606.883 42462.672
38265.938 7994.1899 55947.738
35209.902 85480.57 47767.707
43458.805 44565.852 47711.676
37454.102 6209.3062 48556.953
41902.086 77219.016 45928.445
39499.52 22338.18 48813.602
37463.18 56801.734 45887.34
39780.906 77854.766 50532.18
35898.484 74628.062 45079.891
40383.312 39116.832 47722.383
44682.121 9616.3525 43717.688
38911.52 90763.82 44481.957
38809.441 10025.468 58942.109
50595.594 215.5264 39623
36876.211 64466.895 47038.305
34916.672 70763.82 47682.699
38736.184 263.8205 46680.344
38500.668 90763.82 46460.48
37422.426 72198.984 50495.43
35323.07 83553.023 46198.887
39737.359 87768.305 43898.504
36322.547 55631.227 49262.934
40024.293 31411.119 46055.348
49303.789 16702.865 42036.91
37416.191 65771.359 48519.039
38693.5 33948.605 49023.723
37575.48 17094.83 45796.848
37214.988 49682.367 42105.547
50196.539 3211.9731 40996.051
39632.59 62434.957 47251.156
27449.379 3964.4048 40272.41
35073.762 62251.602 49054.59
36863.617 27047.76 47271.137
38150.934 72304.25 43765.746
39257.523 61478.195 47857.562
38808.492 46332.781 45927.934
36908.559 53161.363 46833.941
38111.27 26059.367 48936.129
37076.496 52150.457 48074.379
37757.027 58096.469 45118.977
37612.391 20673.926 45771
40560.871 76452.875 44297.066
40133.742 63598.762 50320.141
39558.074 46310.121 45667.066
40466.859 3005.748 45756.559
40364.223 61279.57 46659.727
43159.727 66820.188 47513.25
41614.766 50243.738 47825.191
38080.531 79013.531 50668.332
38606.875 4813.6343 58658.109
37453.355 90763.82 46526.613
37887.977 28797.225 55104.305
33665.18 3166.7249 44545.652
37006.168 1176.179 46529.793
40383.504 38274.82 46731.684
38390.57 57702.824 44389.129
37202.855 51554.836 48272.309
37816.77 8499.2568 60711.633
35271.91 46227.641 42435.688
37016.484 39261.641 47945.691
37347.262 44435.949 46003.25
40010.875 20722.852 48411.43
38019.184 56476.117 44162.965
35451.398 41109.969 52614.473
41703.27 64176.688 49686.324
36877.594 13502.504 47430.879
39379.73 3869.0833 61279.148
39306.102 43277.605 45549.57
29218.244 6716.8037 41821.82
38459.863 40039.887 49009.195
41769.133 88132.57 45631.871
38184.535 59107.105 43963.316
36633 21039.531 57248.516
47730.215 6346.2837 42445.836
39174.645 70763.82 47280.172
40624.789 88930.781 50111.031
38859.836 56602.711 42569.414
36220.043 32549.174 53982.41
38904.973 90763.82 47533.676
37936.273 48130.875 45585.512
40405.875 11100.576 46815.176
42181.723 60397.016 50177.941
38177.988 25192.785 56208.484
37275.445 60683.891 46077.375
34812.031 66263.82 45039.637
40909.754 66263.82 48637.176
41567.316 64749.461 50774.578
48250.887 23723.748 43306.723
30675.885 24681.488 40941.16
36194.188 46633.594 52464.352
39288.91 10424.176 45541.551
42571.402 66263.82 50963.844
36972.965 18084.557 58346.645
37879.547 41274.004 48841.402
36633.367 85188.422 44374.441
37278.586 60353.676 46072.895
41509.23 88614.391 49244.984
39201.574 90763.82 49163.57
39211.363 61248.633 47334.879
35177.879 89039.141 46957.664
41661.426 63234.695 50697.914
40164.168 65239.496 51051.207
42177.469 61545.727 50089.73
39225.57 3841.2168 45521.895
35284.621 66263.82 50836.812
38332.906 22641.438 56810.891
39298.855 56587.777 43126.645
39458.289 25291.822 45620.535
27502.461 5153.0474 41169.176
38883.633 11635.959 53439
39865.492 2580.7065 48556.816
38598.047 66027.312 49021.285
38349.754 89856.969 43750.48
49803.457 5813.3647 41576.078
37031.285 15230.888 58769.602
34531.176 40276.301 43244.547
40610.625 49914.027 48099.332
40432.746 40858.809 46918.273
37492.859 8922.2822 60324.871
39519.648 50465.578 45649.145
45269.852 34590.973 46241.078
29384.701 11658.114 41119.898
32876.629 28751.58 42436.422
37728.816 57170.129 44257.527
32229.891 32359.482 41622.207
45261.395 42183.555 46207.27
27142.84 7220.4424 41250.586
38467.078 86077.672 50719.293
41521.312 72796.438 49229.125
40148.617 21897.32 48226.59
33178.891 28749.254 41454.828
36456.98 82538.734 44519.906
32424.443 33429.422 42140.066
40042.031 66263.117 49966.836
38240.844 263.8205 45890.988
28338.877 6511.3525 40532.293
39299.16 90763.82 44192.359
49308.016 8228.9219 40493.352
39703.527 45798.938 47104.453
37801.914 19982.756 58298.188
37730.137 5806.1245 59917.676
38185.402 90763.82 47876.062
39138.289 61760.383 42845.207
31378.428 24844.695 42390.375
39817.918 90763.82 45995.789
38585.98 8374.166 55349.875
35007.785 37198.254 41884.285
41606.02 70677.75 42726.68
43556.797 44293.578 46265.461
45514.867 36637.785 46629.781
38251.895 17955.566 46989.141
50134.633 4256.0762 40780.547
31721.324 29537.43 41252.742
29320.854 2869.9419 42291.41
37958.254 46774.539 48453.5
38866.961 2371.9724 50679.316
38496.242 66263.82 44125.172
36576.301 23232.039 57053.02
37716.406 30773.252 55530.75
43159.727 66853.648 50020.824
38104.691 537.42755 62309.094
26980.148 5414.4678 41233.098
36430.633 31844.84 54003.266
36418.551 27906.656 55080.828
37663.992 36167.266 45734.871
36618.191 51535.719 50606.852
38228.562 53338.32 43601.457
35952.926 61339.613 47942.18
36998.918 12429.076 47908.016
28061.271 13463.417 41038.758
39603.562 13522.021 45698.531
37651.59 12728.921 45743.555
29036.51 16693.352 41671.422
27620.318 6835.5435 41335.262
41883.922 77256.023 48573.699
37088.578 69922.867 51726.68
34549.672 59285.438 49328.445
37683.043 83611.062 50577.906
45028.473 32955.086 45316.773
36171.781 75068.484 44773.23
34592.254 40033.852 43261.727
34782.84 64642.371 46704.602
35505.285 76080.211 45732.332
39475.965 83819.203 43833.684
40373.801 10075.196 46695.488
41089.453 72934.125 49731.645
51474.773 3847.2588 40676.223
39067.555 60427.07 44454.32
41295.812 70763.82 46136.074
38019.914 90763.82 50410.695
38671.25 17819.82 47232.262
32784.254 33803.395 42665.578
40038.473 66242.852 43151.68
34159.727 66876.781 45853.699
28539.492 12047.485 39853.516
36715.098 46171.852 51058.359
40026.723 66263.82 47621.355
39952.891 12652.224 45983.945
40199.566 90763.82 48064.996
39094.25 2711.075 50187.027
38889.906 88647.773 43744.352
37828.816 54911.137 43168.098
43159.727 69106.828 50236.539
34159.727 69238.188 51292.688
39190.039 75857.188 43767.395
38507.762 53424.258 42712.684
37393.953 46671.086 45956.555
39107.461 70763.82 46637.293
28913.654 5958.9829 41215.324
35339.941 57381.891 48284.785
41082.043 83403.938 49738.777
47707.68 25797.621 44636.262
38645.043 66263.82 50524.418
41569.863 51234.461 48625.133
35631.461 40698.008 43011.992
29095.424 10599.374 40185.777
40671.906 59027.332 47404.965
38782.605 31699.824 49015.93
40181.934 72561.328 44077.684
36485.027 51948.953 42945.996
39102.242 2374.3474 46713.762
34159.727 66432.688 48184.32
44355.891 37880.332 45496.816
32197.826 29119.992 40863.203
38331.859 60793.289 48995.234
37868.285 35260.695 48836.148
38194.141 2816.7095 52502.996
38605.492 67045.555 42726.68
37148.012 27509.014 48193.984
38192.859 34096.109 48957.988
39717.305 41518.926 48675.188
37229.902 48753.117 49054.184
27730.838 9525.373 41423.898
34016.434 11422.189 44067.195
34255.73 66263.82 47164.078
37729.438 6397.4536 45689.047
37468.625 36926.051 48571.473
43268.625 49055.395 48646.355
36886.785 43210.328 47535.949
51669.965 2717.5623 40444.578
39933.91 9026.9238 45964.969
41958.594 61663.082 50401.145
39477.809 12787.53 48823.73
39403.98 65347.121 45595.207
40711.035 65855.5 51345.16
37745.191 13541.31 45678.016
49446.734 5115.9844 41282.828
35789.801 35857.5 54169.906
36879.957 17724.291 46995.484
40126.281 9955.9824 46194.871
39496.391 24642.105 45638.301
48588.574 17043.307 41688.855
35405.078 55965.219 50429.27
41843.41 63442.977 49604.176
35359.988 47995.406 50545.965
37471.977 30193.113 54398.41
41644.102 66263.82 46409.23
41210.957 61248.262 48814.207
37137.496 41782.75 46274.391
38642.07 4932.2891 61610.715
35265.926 78256.688 48056.609
36933.434 46227.418 51747.629
35457.578 73279.938 45838.754
45776.559 37294.48 46563.453
39071.867 14304.7 45480.707
32485.547 26525.066 42218.402
36862.031 72231.078 50228.75
36189.395 55422.363 49055.426
28521.289 8383.8574 41142.258
34331.945 69452.062 42726.68
38196.961 54800.426 44132.961
43621.527 49773.484 48665.551
41432.441 50639.309 48550.277
46790.5 26729.162 43252.406
36010.953 78391.766 44953.691
36878.793 47356.512 47444.582
31440.109 22998.191 40582.75
30064.613 16229.233 41747.707
36448.996 85735.898 49938.23
35865.836 83893.023 45120.902
38486.82 24030.873 49011.555
33794.266 36812.688 41335.812
39794.027 71459.516 43921.34
42017.512 52963.176 48764.66
38957.777 44360.41 46957.375
49041.328 9428.9482 42009.926
46685 2432.6348 42982.922
37170.898 84383.523 50383.586
31362.859 27326.936 40979.883
39660.191 54290.191 45738.184
37280.871 85911.586 50438.035
35914.102 46531.543 52493.242
38752.578 77590.242 50723.121
40135.094 88513.32 44058.805
39823.617 70763.82 51079.496
38134.031 19856.803 58173.34
37752.23 70763.82 46738.352
40009.195 58988.008 48413.109
37754.656 4919.2808 60152.945
39061.32 60689.047 45477.883
35936.258 75017.391 49410.312
30739.135 7310.9556 42707.066
39489.27 23262.031 45634.984
39656.375 55891.121 45735.512
40115.031 25690.975 48274.555
35828.355 84316.922 45178.773
38657 52238.73 47239.203
40415.711 25802.156 46851.898
50409.688 9391.208 41920.613
34159.727 68603.523 51581.445
35888.164 63886.723 47681.68
39667.129 36285.695 45743.039
30815.963 2475.9788 43056.41
39358.578 89653.281 50649.848
36122.555 29723.877 55370.25
36614.152 85592.703 50054.398
46293.594 26461.865 43513.582
38441.395 59243.953 42783.84
40207.695 33094.281 48142.215
38879.016 2760.4922 47354.402
35418.504 13384.903 44821.48
39418.863 62918.945 45602.152
46229.84 34989.629 46118.039
45636.777 31471.508 45663.707
39111.004 55680.266 43504.434
35927.543 77384.414 49398.879
36612.199 46653.23 50877.66
48852.641 10100.555 40968.586
39989.523 65417.379 43037.328
35850.672 59002.195 49570.094
38234.766 62401.797 46310.332
37623.023 22858.938 48689.805
36435.336 87210.438 44537.754
29913.615 17036.512 41924.434
42065.934 71870.211 47992.629
36531.465 33071.938 55402.715
37150.758 51508.742 42164.148
40773.523 86114.898 50006.418
39823.219 14311.227 45854.273
37099.883 62753.762 46328.824
36035.32 70763.82 45740.52
44625.199 35399.086 45541.695
41848.707 52568.203 47959.301
36966.578 21629.684 47835.965
36433.902 70763.82 46843.418
38410.684 9570.4902 58795.199
40310.961 40928.445 46524.805
29892.426 21596.137 40940.152
42149.23 73158.984 47299.598
41278.105 77177.258 44919.582
42070.824 88932.648 47967.422
38603.352 35164.664 45431.609
38663.629 3212.5601 49977.32
34580.688 66684.266 42726.68
40128.121 72677.961 50393.703
38908.531 64736.805 49004.914
38697.977 4509.1416 60157.652
35265.477 56144.746 50370.574
40773.844 63193.215 43637.098
43159.727 66285.367 46400.559
36882.344 57577.098 46968.176
37469.992 73554.68 43943.684
44769.191 43679.035 46146.535
37290.418 46289.57 46060.098
38375.93 52550.312 45451.512
38412.426 90763.82 48190.891
40234.832 70763.82 48751.312
32730.811 26507.229 41648.508
40357.465 47367.625 46634.512
38630 44321.68 49024.078
30366.145 22436.514 40631.461
28024.357 4102.9912 41294.457
36151.98 43248.621 41961
33170.766 28506.393 41691.715
36897.258 30713.756 54133.223
35171.906 76271.727 47343.359
39668.105 25559.244 45743.723
46304.273 25900.455 43529.598
38317.02 29429.549 48991.258
38509.785 33520.039 45439.797
29353.004 13827.481 40011.422
38870.16 70763.82 48341.59
38528.672 13104.25 59656.852
39958.387 295.7402 45989.441
49804.484 11069.786 42453.359
36916.809 1920.1698 46803.141
44376.145 48033.953 47827.723
49979.207 2075.6099 40350.477
38788.918 8396.791 49015.379
37050.398 10804.012 46434.941
40445.73 40347.711 47066.695
37569.699 22089.52 45800.898
38315.738 55610.883 44187.488
39384.254 70763.82 43406.922
31188.732 27298.158 41179.141
41652.02 70763.82 46286.152
34745.457 66263.82 47361.031
34712.129 35583.164 42290.707
27531.828 6116.5674 41282.445
38959.977 76453.094 43749.734
41225.254 2520.5095 46193.449
41013.363 66263.82 49069.566
40312.375 51243.605 47925.523
42359.91 54651.508 49545.078
36410.352 51197.352 49746.277
42657.969 70763.82 43406.098
39232.762 12357.652 48929.543
28048.82 5181.7964 40436.082
39697.113 13924.044 48689.324
36950.18 66263.82 50571.391
38089.512 59289.859 45523.066
40308.785 66263.82 50862.121
38488.336 320.7084 62057.449
40434.352 5583.3545 46936.621
38622.824 67637.359 42726.68
38674.055 16333.844 58445.664
38169.762 24912.525 56110.418
49265.281 12142.413 42714.422
37147.812 84732.148 50372.156
37693.621 5571.3745 45714.125
38966.449 38779.16 48999.848
35464.652 64378.254 46911.984
47751.547 6818.9658 42539.297
44046.543 39065.078 46284.129
43159.727 68666.039 50140.383
37344.055 2496.9451 48446.906
35858.012 46081.117 43598.543
35164.695 89335.328 47155.293
36917.516 28977.588 46800.516
40884.207 58798.074 49208.441
37744.797 66263.82 49873.492
37978.895 77669.172 50652.633
42979.215 66263.82 46114.375
41470.238 88011.734 49296.129
38978.828 66263.82 48491.738
36078.727 44509.648 51108.879
50319.395 10940.269 41878.406
38403.105 2313.8203 61299.406
40194.102 3017.1008 45920.898
42000.668 63099.816 49913.598
37683.984 49749.859 43449.66
40282.75 63982.004 46464.301
37568.137 29733.252 54548.184
35132.215 49626.992 51463.266
35013.293 13866.256 45067.18
38387.633 66263.82 43023.047
36851.473 66263.82 48942.148
39582.848 59424.242 48769.336
39534.645 45957.504 47511.5
43159.727 69643.898 48539.066
49932.387 11205.37 42387.68
36452.129 2734.9541 46460.23
40029.293 46779.41 46060.352
35694.426 85864.32 45385.582
33385.559 32964.492 41084.258
38155.445 13351.035 57957.621
41606.039 65183.922 50650.426
38626.859 41048.738 45429.555
40259.645 49041.492 47794.215
38240.59 45705.344 46834.711
40145.812 20746.193 48230.594
37283.773 47456.293 43106.742
49495.312 9200.8193 40462.383
38452.578 13471.645 59615.57
36901.895 64627.918 46858.812
46586.953 31764.49 44166.727
42540.855 67741.25 42726.68
35317.434 50926.367 51414.527
38848.926 57185.477 45443.234
49917.078 3956.425 40354.336
37568.492 7034.3188 59780.254
47076.266 24291.014 44639.574
38014.668 34979.27 48904.406
32249.744 3083.3752 43131.543
39885.152 26222.693 48537.16
41976.879 78888.242 46127.902
39421.762 69952.664 42726.68
42883.82 47134.613 47930.875
37630.633 67530.094 42726.68
42745.332 52970.277 47457.801
40400.512 30055.217 46795.18
36939.355 5745.0991 46718.992
40149.746 59774.922 48224.98
49467.863 2634.0598 40545.812
34159.727 69962.266 46238.32
27539.279 4587.9434 41122.129
37224.473 47720.234 43350.664
38538.934 3198.2649 49874.047
35934.012 78071.273 45040.023
40421.137 15390.872 47581.211
39452.324 59090.199 45617.754
34129.828 34224.953 42712.184
35211.945 62580.219 47155.898
32961.617 34270.387 41323.996
34833.109 52829.637 50574.754
38520.941 11885.398 52103.945
36443.18 34995.309 54987.938
36971.867 42897.797 46603.352
37822.176 88735.828 50621.934
37307.477 35653.75 48410.328
38239.566 3456.1453 45482.855
40063.641 8238.8447 48347.953
34887.812 66260.93 47234.402
44954.832 33359.574 45190.496
37127.746 33773.871 48165.043
34159.727 67110.812 47315.27
39659.098 57546.18 48715.949
38706.332 70763.82 50260.812
38798.566 66263.82 50179.574
38965.926 2338.8384 47219.668
39679.078 74829.922 50564.402
35461.129 86704.789 45830.828
34159.727 69526.859 46443.305
38388.348 4402.9517 59907.355
39754.703 83175.625 50540.469
32765.195 28027.523 41024.309
40978.383 90763.82 47396.98
47979.73 17998.625 41915.766
38695.797 48550.715 45307.734
38613.578 70763.82 45899.172
38207.352 74890.641 50687.918
39033.609 2313.8203 61480.133
37919.199 66263.82 45843.648
43110.793 50599.527 47982.297
42155.016 80199.242 47074.062
28720.299 12714.96 41681.488
41216.504 57523.492 49598.801
27632.283 6274.4536 41275.227
42013.273 87886.188 46260.34
39870.984 55504.895 45902.039
27962.555 12433.767 40261.238
38858.5 81873.102 43741.941
37438.945 17792.242 45911.566
38351.082 3778.8323 60055.953
37698.414 39957.016 45710.77
36897.652 9930.7852 46874.625
37974.387 57209.789 42678.836
47607.352 2827.8955 41593.75
37226.199 13641.927 59307.496
40303.168 15710.328 46288.09
35827.52 71169.57 49267.664
41054.523 58021.316 47528.918
41883.664 66349.789 42726.68
38068.277 43486.156 45528.754
33871.832 11989.303 44951.305
37195.836 48733.648 48262.289
37756.723 37303.41 45669.938
48043.184 16496.533 41776.051
35721.824 53763.82 49918.277
42995.684 55813.492 49343.945
38286.359 90763.82 49229.488
36917.984 88684.367 50258.355
26535.373 2510.8887 40582.457
40359.457 21355.625 47811.41
36036.16 15153.452 45687.523
41425.996 72750.508 49354.168
35684.391 44026.594 52898.461
40372.73 62605.695 47761.867
38154.57 1975.7499 45505.633
39620.512 79778.25 43867.508
45613.711 30125.264 45200.129
38192.199 17301.504 48957.812
39083.969 46629.488 48969.414
37559.125 11431.536 48645.062
41913.934 82577.25 48490.141
42154.527 86461.625 47161.312
38862.164 62808.121 43766.941
41822.66 84910.734 48715.117
34159.727 66900.016 43708.125
41676.68 88458.258 48983.57
39113.539 8900.291 59613.602
35973.668 80205.242 49459.391
30672.652 25466.25 41419.258
40156.539 61494.66 48215.277
43026.438 12203.613 45151.684
38479.078 54849.387 44042.363
41057.555 90763.82 47176.227
39610.184 70763.82 45942.934
37592.082 6660.3193 48668.141
39063.879 46236.652 45478.566
40075.555 13446.271 48330.938
49238.746 15562.62 41598.594
42154.461 86565.055 47069.223
41435.184 49851.641 48293.664
37846.66 46483.508 45627.301
40178.566 90763.82 44650.105
27295.518 10105.85 40599.211
34627.18 35189.746 42252.441
31044.594 23823.498 42316.406
35722.43 59885.117 47891.668
40419.273 419.94153 47588.164
36469.508 69873.75 42726.68
38551.984 12109.454 49017.254
41125.121 66263.82 47635.758
35543.973 44827.715 41806.641
35172.859 76645.141 47368.207
38474.523 59708.738 42866.473
38018.387 57481.762 42705.281
39320.391 66263.82 46273.305
37325.988 26053.895 46024.523
40740.609 81260.445 44419.402
40433.234 26064.684 46923.832
45047.852 34162.773 44763.746
39025.188 43346.98 45468.199
37870.262 70763.82 47537
38951.027 3061.512 59009.168
39546.23 86569.656 50606.445
49555.887 6812.5107 41674.426
38080.277 66263.82 50369.469
26816.262 3492.9297 40095.668
36793.207 45846.297 52274.922
43159.727 67327.57 46610.738
34308.188 66983.688 42726.68
39106.219 70077.492 51726.68
36924.824 2229.8057 47680.133
37742.27 27953.477 45680.059
39720.773 30228.635 48672.758
38629.355 61697.758 45429.34
41062.008 49450.559 48381.449
40395.836 47841.359 47675.641
37265.602 45532.699 46091.438
36085.977 66521.562 42726.68
36935.117 30914.928 47718.535
36861.582 5949.5161 47205.461
38435.254 87123.797 50718.07
42081.426 89745.359 47912.75
41559.34 49941.719 47929.016
42180.582 67303 51726.68
45061.621 33321.246 44815.234
38618.938 2371.0151 62157.234
42144.113 87162.547 47432.965
44224.102 48511.844 48082.082
40014.922 70762.016 42726.68
34120.438 11463.067 44590.512
36001.121 51248.93 49623.379
40439.52 65966.93 46995.723
37600.031 58329.711 48673.711
36861.18 17667.986 47210.09
38884.016 263.8205 48785.598
38570.137 57754.148 44956.918
38375.211 72267.289 43748.523
37567.695 67629.555 51726.68
47579.898 27926.215 44660.117
42308.648 60428.031 50007.801
46037.055 34379.82 46214.883
39477.48 57971.215 48823.875
39227.461 1099.7638 48930.965
38434.16 82751.117 50718.031
42139.457 79470.547 47554.484
46360.086 26590.891 44836.785
38797.051 14098.729 58439.543
48548.695 11270.256 41994.32
38325.852 28679.021 45459.734
36257.469 14405.384 45312.375
37765.953 39771.055 45664.93
41398.008 88374.289 45054.125
50087.285 7072.4956 40079.387
36715.199 66263.82 44297.723
38080.008 62785.355 47892.402
40339.609 12629.354 47867.121
37739.492 9346.0938 60506.633
39193.68 67815.789 51726.68
42031.5 61586.559 49149.332
36924.512 61355.344 47678.969
35508.625 62921.531 47201.516
44838.52 45360.746 46980.117
36627.867 46271.699 52341.977
35428.816 45110.008 43451.934
48412.738 21769.039 42744.555
34340.941 66185.422 47037.324
36827.184 38962.652 52405.113
37064.164 26635.467 48047.934
38526.27 80650.523 50721.566
35432.949 66734.773 51726.68
51053.801 6668.7402 40923.414
37732.195 49930.699 44483.586
40152.602 20118.369 48220.898
36768.191 70763.82 44504.766
36959.703 51303.777 47810.305
35767.883 40458.215 42212.648
40305.07 11649.058 47941.191
36796.988 19724.621 57046.816
35254.094 83602.984 47995.582
29434.057 19761.119 41374.145
38688.352 11738.787 59891.703
37594.816 15557.954 57490.074
34402.305 66263.82 43615.691
41988.066 72726.312 48283.734
37327.59 76695.195 50461.168
39723.074 3010.6707 45782.211
36866.023 62729.664 47298.641
38244.008 10374.258 54408.707
42512.133 70763.82 43783.871
39062.945 50032.746 45478.316
42137.105 88604.414 46918.914
49878.855 6246.542 40019.469
37849.27 3189.8152 46587.871
39143.473 17347.281 46538.887
31460.723 20991.564 40955.219
37147.934 42330.312 52708.301
37174.188 20812.639 46221.988
36900.621 46290.656 47589.793
34544.434 57048.383 48979.633
47309.73 29133.539 44034.047
39681.355 28973.301 45753
39773.785 31063.881 48635.645
49556.707 7965.6118 41968.758
36518.906 44173.547 42251.398
37255.387 54108.602 42529.812
36022.141 70763.82 46911.73
38038.281 14543.594 45537.945
36578.062 79562.742 44420.051
40929.422 66263.82 49279.359
34159.727 69577.195 50524.762
28264.385 7624.4155 39807.344
36939.934 42029.684 53208.355
39908.773 68580.984 51726.68
40343.281 47343.777 46594.121
47396.406 18465.078 43154.051
37142.152 41527.414 53052.453
41208.203 70763.82 47013.586
40255.297 63178.402 46405.438
40440.43 63914.844 49399.691
30483.174 22249.555 40528.996
40525.32 70763.82 44889.164
34672.48 67629.172 51726.68
43669.52 12195.554 44320.945
48357.254 12568.095 42240.746
38836.332 8559.0889 60625.051
38196.863 3940.2153 59848.504
35770.18 66307.117 42726.68
41078.316 66116.742 44398.543
37872.215 2336.8123 46607.285
40333.047 32864.785 46572.168
41432.859 79123.906 49345.168
37436.383 66263.82 47510.672
36965.965 19535.777 46619.684
36296.965 70763.82 50964.113
31292.561 8017.1069 43049.301
35288.09 14046.813 45754.891
43550.527 52073.293 48804.465
37064.418 90763.82 44486.234
37699.332 70763.82 47861.801
38054.891 90763.82 47799.844
38717.953 14900.612 58170.535
48256.27 16555.52 43379.621
38238.223 83637.844 43759.039
44487.445 10765.313 44407.066
35355.918 89555.352 46079.355
36771.125 66263.82 43003.246
38182.246 10474.679 58570.137
27998.189 11093.885 41479.637
34699.559 56559.363 48838.332
42011.484 77559.008 48218.523
40914.195 71918.359 44562.555
40514.652 63171.621 49311.238
38497.902 66263.82 46453.535
40420.684 58109.305 47797.621
50525.332 8143.5464 41810.535
43377.434 53521.98 47922.637
48280.996 16440.246 41641.516
36550.242 66263.82 45003.684
37470.344 34847.238 53660.484
25325.92 760.86432 39711.828
36515.555 53378.398 50053.836
40458.262 40652.379 47243.414
39803.707 57121.445 48614.691
42457.262 60001.406 49752.02
38442.43 83522.922 50718.352
40171.449 4634.6387 48193.988
40704.012 61017.375 50231.238
42022.777 59857.676 50278.492
35493.945 75875.891 45757.629
39032.566 7672.9263 59556.766
37685.996 4224.6792 60504.883
49132.961 7335.6772 41167.09
34202.855 67343.328 42726.68
36897.188 29249.523 47576.988
36590.949 85388.781 44409.422
34527.77 65074.008 48335.309
40658 62273.504 50587.371
42836.625 53763.82 48826.59
39442.801 39550.527 48840.051
37345.449 48214.25 42380.996
37913.438 70763.82 50412.172
37848.141 89199.164 43832.594
38001.57 39826.953 48898.301
39302.871 53356.523 48905.301
35506.473 47893.723 52084.879
37803.348 54778.824 44071.293
38810.688 44803.961 47090.277
36405.719 15620.919 46284.793
40441.918 14581.489 47023.113
49133.328 16890.848 41897.082
36380.445 51123.598 49730.68
39075 71402.961 43758.566
40194.266 90763.82 44615.738
40448.016 16747.939 47092.797
46055.703 36869.676 45257.621
37540.605 55652.078 43752.078
35142.57 63524.129 46947.738
38542.984 6543.3906 45436.895
39850.91 44231.703 48571.395
38525.738 21185.438 45438.402
33951.574 34752.277 42919.82
35702.195 41428.789 53356.898
38667.699 5311.9312 59417.945
37612.379 66881.609 51726.68
38126.203 33315.262 45513.234
42130.543 51069.855 48256.156
38495.148 6834.2642 49012.281
40559.812 86914.977 44296.434
40447.816 49147.555 47090.492
43989.488 43423.156 45969.512
38291.43 29088.809 45468.961
42609.98 56379.645 49705.227
30415.068 3112.7156 42752.398
39012.781 16443.369 48988.488
37233.625 2358.0298 46617.379
37595.129 28517.809 54782.883
34605.695 63533.707 47033.203
41965.504 66263.82 42733.875
37586.18 28117.783 54847.473
26652.531 3532.1562 40354.793
46317.672 35976.477 45366.316
39889.617 33520.188 45920.672
37636.34 62543.934 48699.129
29297.5 2364.5776 42010.223
37315.824 6823.063 48418.676
51316.77 2648.3059 40434.535
34640.59 37477.699 43038.703
41216.465 56365.602 47841.617
37941.707 60186.824 45971.309
40752.129 65897.203 51347.695
42847.129 48258.613 48285.285
36879.688 51656.238 46998.551
36808.047 37578.57 54427.906
34838.473 43406.219 41970.488
48963.617 12621.54 42767.797
37560.656 90763.82 49658.062
46098.535 34425.156 44565.324
